versioninfo
{
	"editorversion" "400"
	"editorbuild" "6217"
	"mapversion" "3"
	"formatversion" "100"
	"prefab" "0"
}
visgroups
{
}
viewsettings
{
	"bSnapToGrid" "1"
	"bShowGrid" "1"
	"bShowLogicalGrid" "0"
	"nGridSpacing" "8"
	"bShow3DGrid" "0"
}
world
{
	"id" "1"
	"mapversion" "3"
	"classname" "worldspawn"
	"skyname" "sky_day01_01"
	"maxpropscreenwidth" "-1"
	"detailvbsp" "detail.vbsp"
	"detailmaterial" "detail/detailsprites"
	solid
	{
		"id" "2"
		side
		{
			"id" "1"
			"plane" "(0 512 64) (1024 512 64) (1024 -512 64)"
			"material" "DEV/DEV_MEASUREGENERIC01B"
			"uaxis" "[1 0 0 0] 0.25"
			"vaxis" "[0 -1 0 0] 0.25"
			"rotation" "0"
			"lightmapscale" "16"
			"smoothing_groups" "0"
		}
		side
		{
			"id" "2"
			"plane" "(0 -512 0) (1024 -512 0) (1024 512 0)"
			"material" "DEV/DEV_MEASUREGENERIC01B"
			"uaxis" "[1 0 0 0] 0.25"
			"vaxis" "[0 -1 0 0] 0.25"
			"rotation" "0"
			"lightmapscale" "16"
			"smoothing_groups" "0"
		}
		side
		{
			"id" "3"
			"plane" "(0 512 64) (0 -512 64) (0 -512 0)"
			"material" "DEV/DEV_MEASUREGENERIC01B"
			"uaxis" "[0 1 0 0] 0.25"
			"vaxis" "[0 0 -1 0] 0.25"
			"rotation" "0"
			"lightmapscale" "16"
			"smoothing_groups" "0"
		}
		side
		{
			"id" "4"
			"plane" "(1024 512 0) (1024 -512 0) (1024 -512 64)"
			"material" "DEV/DEV_MEASUREGENERIC01B"
			"uaxis" "[0 1 0 0] 0.25"
			"vaxis" "[0 0 -1 0] 0.25"
			"rotation" "0"
			"lightmapscale" "16"
			"smoothing_groups" "0"
		}
		side
		{
			"id" "5"
			"plane" "(1024 512 64) (0 512 64) (0 512 0)"
			"material" "DEV/DEV_MEASUREGENERIC01B"
			"uaxis" "[1 0 0 0] 0.25"
			"vaxis" "[0 0 -1 0] 0.25"
			"rotation" "0"
			"lightmapscale" "16"
			"smoothing_groups" "0"
		}
		side
		{
			"id" "6"
			"plane" "(1024 -512 0) (0 -512 0) (0 -512 64)"
			"material" "DEV/DEV_MEASUREGENERIC01B"
			"uaxis" "[1 0 0 0] 0.25"
			"vaxis" "[0 0 -1 0] 0.25"
			"rotation" "0"
			"lightmapscale" "16"
			"smoothing_groups" "0"
		}
		editor
		{
			"color" "0 170 227"
			"visgroupshown" "1"
			"visgroupautoshown" "1"
		}
	}
	solid
	{
		"id" "43"
		side
		{
			"id" "64"
			"plane" "(2304 2048 64) (2816 2048 64) (2816 -2048 64)"
			"material" "DEV/DEV_MEASUREGENERIC01B"
			"uaxis" "[1 0 0 0] 0.25"
			"vaxis" "[0 -1 0 0] 0.25"
			"rotation" "0"
			"lightmapscale" "16"
			"smoothing_groups" "0"
		}
		side
		{
			"id" "63"
			"plane" "(2304 -2048 0) (2816 -2048 0) (2816 2048 0)"
			"material" "DEV/DEV_MEASUREGENERIC01B"
			"uaxis" "[1 0 0 0] 0.25"
			"vaxis" "[0 -1 0 0] 0.25"
			"rotation" "0"
			"lightmapscale" "16"
			"smoothing_groups" "0"
		}
		side
		{
			"id" "62"
			"plane" "(2304 2048 64) (2304 -2048 64) (2304 -2048 0)"
			"material" "DEV/DEV_MEASUREGENERIC01B"
			"uaxis" "[0 1 0 0] 0.25"
			"vaxis" "[0 0 -1 0] 0.25"
			"rotation" "0"
			"lightmapscale" "16"
			"smoothing_groups" "0"
		}
		side
		{
			"id" "61"
			"plane" "(2816 2048 0) (2816 -2048 0) (2816 -2048 64)"
			"material" "DEV/DEV_MEASUREGENERIC01B"
			"uaxis" "[0 1 0 0] 0.25"
			"vaxis" "[0 0 -1 0] 0.25"
			"rotation" "0"
			"lightmapscale" "16"
			"smoothing_groups" "0"
		}
		side
		{
			"id" "60"
			"plane" "(2816 2048 64) (2304 2048 64) (2304 2048 0)"
			"material" "DEV/DEV_MEASUREGENERIC01B"
			"uaxis" "[1 0 0 0] 0.25"
			"vaxis" "[0 0 -1 0] 0.25"
			"rotation" "0"
			"lightmapscale" "16"
			"smoothing_groups" "0"
		}
		side
		{
			"id" "59"
			"plane" "(2816 -2048 0) (2304 -2048 0) (2304 -2048 64)"
			"material" "DEV/DEV_MEASUREGENERIC01B"
			"uaxis" "[1 0 0 0] 0.25"
			"vaxis" "[0 0 -1 0] 0.25"
			"rotation" "0"
			"lightmapscale" "16"
			"smoothing_groups" "0"
		}
		editor
		{
			"color" "0 170 227"
			"visgroupshown" "1"
			"visgroupautoshown" "1"
		}
	}
	solid
	{
		"id" "115"
		side
		{
			"id" "109"
			"plane" "(2304 -1024 64) (1024 -1024 64) (512 -512 64)"
			"material" "DEV/DEV_MEASUREGENERIC01B"
			"uaxis" "[1 0 0 0] 0.25"
			"vaxis" "[0 -1 0 0] 0.25"
			"rotation" "0"
			"lightmapscale" "16"
			"smoothing_groups" "0"
		}
		side
		{
			"id" "108"
			"plane" "(1024 -1024 0) (2304 -1024 0) (2304 -512 0)"
			"material" "DEV/DEV_MEASUREGENERIC01B"
			"uaxis" "[1 0 0 0] 0.25"
			"vaxis" "[0 -1 0 0] 0.25"
			"rotation" "0"
			"lightmapscale" "16"
			"smoothing_groups" "0"
		}
		side
		{
			"id" "107"
			"plane" "(2304 -1024 0) (2304 -1024 64) (2304 -512 64)"
			"material" "DEV/DEV_MEASUREGENERIC01B"
			"uaxis" "[0 1 0 0] 0.25"
			"vaxis" "[0 0 -1 0] 0.25"
			"rotation" "0"
			"lightmapscale" "16"
			"smoothing_groups" "0"
		}
		side
		{
			"id" "106"
			"plane" "(1024 -1024 0) (1024 -1024 64) (2304 -1024 64)"
			"material" "DEV/DEV_MEASUREGENERIC01B"
			"uaxis" "[1 0 0 0] 0.25"
			"vaxis" "[0 0 -1 0] 0.25"
			"rotation" "0"
			"lightmapscale" "16"
			"smoothing_groups" "0"
		}
		side
		{
			"id" "105"
			"plane" "(512 -512 0) (512 -512 64) (1024 -1024 64)"
			"material" "DEV/DEV_MEASUREGENERIC01B"
			"uaxis" "[0 1 0 0] 0.25"
			"vaxis" "[0 0 -1 0] 0.25"
			"rotation" "0"
			"lightmapscale" "16"
			"smoothing_groups" "0"
		}
		side
		{
			"id" "104"
			"plane" "(2304 -512 0) (2304 -512 64) (512 -512 64)"
			"material" "DEV/DEV_MEASUREGENERIC01B"
			"uaxis" "[1 0 0 0] 0.25"
			"vaxis" "[0 0 -1 0] 0.25"
			"rotation" "0"
			"lightmapscale" "16"
			"smoothing_groups" "0"
		}
		editor
		{
			"color" "0 170 227"
			"visgroupshown" "1"
			"visgroupautoshown" "1"
		}
	}
	solid
	{
		"id" "116"
		side
		{
			"id" "115"
			"plane" "(1024 -512 64) (1024 512 64) (2304 512 64)"
			"material" "DEV/GRAYGRID"
			"uaxis" "[1 0 0 -256] 0.25"
			"vaxis" "[0 -1 0 256] 0.25"
			"rotation" "0"
			"lightmapscale" "16"
			"smoothing_groups" "0"
		}
		side
		{
			"id" "114"
			"plane" "(2304 -512 0) (2304 512 0) (1024 512 0)"
			"material" "DEV/DEV_MEASUREGENERIC01B"
			"uaxis" "[1 0 0 0] 0.25"
			"vaxis" "[0 -1 0 0] 0.25"
			"rotation" "0"
			"lightmapscale" "16"
			"smoothing_groups" "0"
		}
		side
		{
			"id" "113"
			"plane" "(2304 512 0) (2304 -512 0) (2304 -512 64)"
			"material" "DEV/DEV_MEASUREGENERIC01B"
			"uaxis" "[0 1 0 0] 0.25"
			"vaxis" "[0 0 -1 0] 0.25"
			"rotation" "0"
			"lightmapscale" "16"
			"smoothing_groups" "0"
		}
		side
		{
			"id" "112"
			"plane" "(1024 -512 0) (1024 512 0) (1024 512 64)"
			"material" "DEV/DEV_MEASUREGENERIC01B"
			"uaxis" "[0 1 0 0] 0.25"
			"vaxis" "[0 0 -1 0] 0.25"
			"rotation" "0"
			"lightmapscale" "16"
			"smoothing_groups" "0"
		}
		side
		{
			"id" "111"
			"plane" "(2304 -512 0) (1024 -512 0) (1024 -512 64)"
			"material" "DEV/DEV_MEASUREGENERIC01B"
			"uaxis" "[1 0 0 0] 0.25"
			"vaxis" "[0 0 -1 0] 0.25"
			"rotation" "0"
			"lightmapscale" "16"
			"smoothing_groups" "0"
		}
		side
		{
			"id" "110"
			"plane" "(1024 512 0) (2304 512 0) (2304 512 64)"
			"material" "DEV/DEV_MEASUREGENERIC01B"
			"uaxis" "[1 0 0 0] 0.25"
			"vaxis" "[0 0 -1 0] 0.25"
			"rotation" "0"
			"lightmapscale" "16"
			"smoothing_groups" "0"
		}
		editor
		{
			"color" "0 170 227"
			"visgroupshown" "1"
			"visgroupautoshown" "1"
		}
	}
	solid
	{
		"id" "117"
		side
		{
			"id" "121"
			"plane" "(1024 1024 64) (2304 1024 64) (2304 512 64)"
			"material" "DEV/DEV_MEASUREGENERIC01B"
			"uaxis" "[1 0 0 0] 0.25"
			"vaxis" "[0 -1 0 0] 0.25"
			"rotation" "0"
			"lightmapscale" "16"
			"smoothing_groups" "0"
		}
		side
		{
			"id" "120"
			"plane" "(2304 1024 0) (1024 1024 0) (512 512 0)"
			"material" "DEV/DEV_MEASUREGENERIC01B"
			"uaxis" "[1 0 0 0] 0.25"
			"vaxis" "[0 -1 0 0] 0.25"
			"rotation" "0"
			"lightmapscale" "16"
			"smoothing_groups" "0"
		}
		side
		{
			"id" "119"
			"plane" "(2304 512 0) (2304 512 64) (2304 1024 64)"
			"material" "DEV/DEV_MEASUREGENERIC01B"
			"uaxis" "[0 1 0 0] 0.25"
			"vaxis" "[0 0 -1 0] 0.25"
			"rotation" "0"
			"lightmapscale" "16"
			"smoothing_groups" "0"
		}
		side
		{
			"id" "118"
			"plane" "(2304 1024 0) (2304 1024 64) (1024 1024 64)"
			"material" "DEV/DEV_MEASUREGENERIC01B"
			"uaxis" "[1 0 0 0] 0.25"
			"vaxis" "[0 0 -1 0] 0.25"
			"rotation" "0"
			"lightmapscale" "16"
			"smoothing_groups" "0"
		}
		side
		{
			"id" "117"
			"plane" "(1024 1024 0) (1024 1024 64) (512 512 64)"
			"material" "DEV/DEV_MEASUREGENERIC01B"
			"uaxis" "[0 1 0 0] 0.25"
			"vaxis" "[0 0 -1 0] 0.25"
			"rotation" "0"
			"lightmapscale" "16"
			"smoothing_groups" "0"
		}
		side
		{
			"id" "116"
			"plane" "(512 512 0) (512 512 64) (2304 512 64)"
			"material" "DEV/DEV_MEASUREGENERIC01B"
			"uaxis" "[1 0 0 0] 0.25"
			"vaxis" "[0 0 -1 0] 0.25"
			"rotation" "0"
			"lightmapscale" "16"
			"smoothing_groups" "0"
		}
		editor
		{
			"color" "0 170 227"
			"visgroupshown" "1"
			"visgroupautoshown" "1"
		}
	}
	solid
	{
		"id" "171"
		side
		{
			"id" "223"
			"plane" "(1024 512 200) (2304 512 200) (2304 -512 200)"
			"material" "DEV/GRAYGRID"
			"uaxis" "[1 0 0 -256] 0.25"
			"vaxis" "[0 -1 0 256] 0.25"
			"rotation" "0"
			"lightmapscale" "16"
			"smoothing_groups" "0"
		}
		side
		{
			"id" "222"
			"plane" "(1024 -512 192) (2304 -512 192) (2304 512 192)"
			"material" "DEV/GRAYGRID"
			"uaxis" "[1 0 0 0] 0.25"
			"vaxis" "[0 -1 0 0] 0.25"
			"rotation" "0"
			"lightmapscale" "16"
			"smoothing_groups" "0"
		}
		side
		{
			"id" "221"
			"plane" "(2304 -512 192) (1024 -512 192) (1024 -512 200)"
			"material" "DEV/GRAYGRID"
			"uaxis" "[1 0 0 0] 0.25"
			"vaxis" "[0 0 -1 32] 0.25"
			"rotation" "0"
			"lightmapscale" "16"
			"smoothing_groups" "0"
		}
		side
		{
			"id" "220"
			"plane" "(1024 512 192) (2304 512 192) (2304 512 200)"
			"material" "DEV/GRAYGRID"
			"uaxis" "[1 0 0 0] 0.25"
			"vaxis" "[0 0 -1 32] 0.25"
			"rotation" "0"
			"lightmapscale" "16"
			"smoothing_groups" "0"
		}
		side
		{
			"id" "219"
			"plane" "(1024 -512 192) (1024 512 192) (1024 512 200)"
			"material" "DEV/GRAYGRID"
			"uaxis" "[0 1 0 0] 0.25"
			"vaxis" "[0 0 -1 32] 0.25"
			"rotation" "0"
			"lightmapscale" "16"
			"smoothing_groups" "0"
		}
		side
		{
			"id" "218"
			"plane" "(2304 512 192) (2304 -512 192) (2304 -512 200)"
			"material" "DEV/GRAYGRID"
			"uaxis" "[0 1 0 0] 0.25"
			"vaxis" "[0 0 -1 32] 0.25"
			"rotation" "0"
			"lightmapscale" "16"
			"smoothing_groups" "0"
		}
		editor
		{
			"color" "0 248 209"
			"visgroupshown" "1"
			"visgroupautoshown" "1"
		}
	}
	solid
	{
		"id" "172"
		side
		{
			"id" "229"
			"plane" "(2296 504 192) (2304 504 192) (2304 -504 192)"
			"material" "DEV/GRAYGRID"
			"uaxis" "[1 0 0 -256] 0.25"
			"vaxis" "[0 -1 0 256] 0.25"
			"rotation" "0"
			"lightmapscale" "16"
			"smoothing_groups" "0"
		}
		side
		{
			"id" "228"
			"plane" "(2296 -504 64) (2304 -504 64) (2304 504 64)"
			"material" "DEV/GRAYGRID"
			"uaxis" "[1 0 0 0] 0.25"
			"vaxis" "[0 -1 0 0] 0.25"
			"rotation" "0"
			"lightmapscale" "16"
			"smoothing_groups" "0"
		}
		side
		{
			"id" "227"
			"plane" "(2304 504 64) (2304 -504 64) (2304 -504 192)"
			"material" "DEV/DEV_MEASUREWALL01A"
			"uaxis" "[0 1 0 0] 0.25"
			"vaxis" "[0 0 -1 256] 0.25"
			"rotation" "0"
			"lightmapscale" "16"
			"smoothing_groups" "0"
		}
		side
		{
			"id" "226"
			"plane" "(2304 -504 64) (2296 -504 64) (2296 -504 192)"
			"material" "DEV/GRAYGRID"
			"uaxis" "[1 0 0 0] 0.25"
			"vaxis" "[0 0 -1 0] 0.25"
			"rotation" "0"
			"lightmapscale" "16"
			"smoothing_groups" "0"
		}
		side
		{
			"id" "225"
			"plane" "(2296 504 64) (2304 504 64) (2304 504 192)"
			"material" "DEV/GRAYGRID"
			"uaxis" "[1 0 0 0] 0.25"
			"vaxis" "[0 0 -1 0] 0.25"
			"rotation" "0"
			"lightmapscale" "16"
			"smoothing_groups" "0"
		}
		side
		{
			"id" "224"
			"plane" "(2296 -504 64) (2296 504 64) (2296 504 192)"
			"material" "DEV/DEV_MEASUREWALL01A"
			"uaxis" "[0 1 0 0] 0.25"
			"vaxis" "[0 0 -1 256] 0.25"
			"rotation" "0"
			"lightmapscale" "16"
			"smoothing_groups" "0"
		}
		editor
		{
			"color" "0 248 209"
			"visgroupshown" "1"
			"visgroupautoshown" "1"
		}
	}
	solid
	{
		"id" "174"
		side
		{
			"id" "241"
			"plane" "(1032 512 192) (2296 512 192) (2296 504 192)"
			"material" "DEV/GRAYGRID"
			"uaxis" "[1 0 0 -256] 0.25"
			"vaxis" "[0 -1 0 256] 0.25"
			"rotation" "0"
			"lightmapscale" "16"
			"smoothing_groups" "0"
		}
		side
		{
			"id" "240"
			"plane" "(1032 504 64) (2296 504 64) (2296 512 64)"
			"material" "DEV/GRAYGRID"
			"uaxis" "[1 0 0 0] 0.25"
			"vaxis" "[0 -1 0 0] 0.25"
			"rotation" "0"
			"lightmapscale" "16"
			"smoothing_groups" "0"
		}
		side
		{
			"id" "239"
			"plane" "(1032 512 64) (2296 512 64) (2296 512 192)"
			"material" "DEV/DEV_MEASUREWALL01A"
			"uaxis" "[1 0 0 0] 0.25"
			"vaxis" "[0 0 -1 256] 0.25"
			"rotation" "0"
			"lightmapscale" "16"
			"smoothing_groups" "0"
		}
		side
		{
			"id" "238"
			"plane" "(2296 504 64) (1032 504 64) (1032 504 192)"
			"material" "DEV/DEV_MEASUREWALL01A"
			"uaxis" "[1 0 0 0] 0.25"
			"vaxis" "[0 0 -1 256] 0.25"
			"rotation" "0"
			"lightmapscale" "16"
			"smoothing_groups" "0"
		}
		side
		{
			"id" "237"
			"plane" "(1032 504 64) (1032 512 64) (1032 512 192)"
			"material" "DEV/GRAYGRID"
			"uaxis" "[0 1 0 0] 0.25"
			"vaxis" "[0 0 -1 0] 0.25"
			"rotation" "0"
			"lightmapscale" "16"
			"smoothing_groups" "0"
		}
		side
		{
			"id" "236"
			"plane" "(2296 512 64) (2296 504 64) (2296 504 192)"
			"material" "DEV/GRAYGRID"
			"uaxis" "[0 1 0 0] 0.25"
			"vaxis" "[0 0 -1 0] 0.25"
			"rotation" "0"
			"lightmapscale" "16"
			"smoothing_groups" "0"
		}
		editor
		{
			"color" "0 248 209"
			"visgroupshown" "1"
			"visgroupautoshown" "1"
		}
	}
	solid
	{
		"id" "176"
		side
		{
			"id" "277"
			"plane" "(1032 -504 328) (1024 -504 328) (1024 504 328)"
			"material" "DEV/GRAYGRID"
			"uaxis" "[1 0 0 -256] 0.25"
			"vaxis" "[0 -1 0 256] 0.25"
			"rotation" "0"
			"lightmapscale" "16"
			"smoothing_groups" "0"
		}
		side
		{
			"id" "276"
			"plane" "(1032 504 200) (1024 504 200) (1024 -504 200)"
			"material" "DEV/GRAYGRID"
			"uaxis" "[1 0 0 0] 0.25"
			"vaxis" "[0 -1 0 0] 0.25"
			"rotation" "0"
			"lightmapscale" "16"
			"smoothing_groups" "0"
		}
		side
		{
			"id" "275"
			"plane" "(1024 -504 200) (1024 504 200) (1024 504 328)"
			"material" "DEV/DEV_MEASUREWALL01A"
			"uaxis" "[0 1 0 0] 0.25"
			"vaxis" "[0 0 -1 288] 0.25"
			"rotation" "0"
			"lightmapscale" "16"
			"smoothing_groups" "0"
		}
		side
		{
			"id" "274"
			"plane" "(1032 -504 200) (1024 -504 200) (1024 -504 328)"
			"material" "DEV/GRAYGRID"
			"uaxis" "[1 0 0 0] 0.25"
			"vaxis" "[0 0 -1 32] 0.25"
			"rotation" "0"
			"lightmapscale" "16"
			"smoothing_groups" "0"
		}
		side
		{
			"id" "273"
			"plane" "(1024 504 200) (1032 504 200) (1032 504 328)"
			"material" "DEV/GRAYGRID"
			"uaxis" "[1 0 0 0] 0.25"
			"vaxis" "[0 0 -1 32] 0.25"
			"rotation" "0"
			"lightmapscale" "16"
			"smoothing_groups" "0"
		}
		side
		{
			"id" "272"
			"plane" "(1032 504 200) (1032 -504 200) (1032 -504 328)"
			"material" "DEV/DEV_MEASUREWALL01A"
			"uaxis" "[0 1 0 0] 0.25"
			"vaxis" "[0 0 -1 288] 0.25"
			"rotation" "0"
			"lightmapscale" "16"
			"smoothing_groups" "0"
		}
		editor
		{
			"color" "0 248 209"
			"visgroupshown" "1"
			"visgroupautoshown" "1"
		}
	}
	solid
	{
		"id" "177"
		side
		{
			"id" "283"
			"plane" "(1032 -504 328) (2296 -504 328) (2296 -512 328)"
			"material" "DEV/GRAYGRID"
			"uaxis" "[1 0 0 -256] 0.25"
			"vaxis" "[0 -1 0 256] 0.25"
			"rotation" "0"
			"lightmapscale" "16"
			"smoothing_groups" "0"
		}
		side
		{
			"id" "282"
			"plane" "(1032 -512 200) (2296 -512 200) (2296 -504 200)"
			"material" "DEV/GRAYGRID"
			"uaxis" "[1 0 0 0] 0.25"
			"vaxis" "[0 -1 0 0] 0.25"
			"rotation" "0"
			"lightmapscale" "16"
			"smoothing_groups" "0"
		}
		side
		{
			"id" "281"
			"plane" "(2296 -512 200) (1032 -512 200) (1032 -512 328)"
			"material" "DEV/DEV_MEASUREWALL01A"
			"uaxis" "[1 0 0 0] 0.25"
			"vaxis" "[0 0 -1 288] 0.25"
			"rotation" "0"
			"lightmapscale" "16"
			"smoothing_groups" "0"
		}
		side
		{
			"id" "280"
			"plane" "(1032 -504 200) (2296 -504 200) (2296 -504 328)"
			"material" "DEV/DEV_MEASUREWALL01A"
			"uaxis" "[1 0 0 0] 0.25"
			"vaxis" "[0 0 -1 288] 0.25"
			"rotation" "0"
			"lightmapscale" "16"
			"smoothing_groups" "0"
		}
		side
		{
			"id" "279"
			"plane" "(1032 -512 200) (1032 -504 200) (1032 -504 328)"
			"material" "DEV/GRAYGRID"
			"uaxis" "[0 1 0 0] 0.25"
			"vaxis" "[0 0 -1 32] 0.25"
			"rotation" "0"
			"lightmapscale" "16"
			"smoothing_groups" "0"
		}
		side
		{
			"id" "278"
			"plane" "(2296 -504 200) (2296 -512 200) (2296 -512 328)"
			"material" "DEV/GRAYGRID"
			"uaxis" "[0 1 0 0] 0.25"
			"vaxis" "[0 0 -1 32] 0.25"
			"rotation" "0"
			"lightmapscale" "16"
			"smoothing_groups" "0"
		}
		editor
		{
			"color" "0 248 209"
			"visgroupshown" "1"
			"visgroupautoshown" "1"
		}
	}
	solid
	{
		"id" "178"
		side
		{
			"id" "289"
			"plane" "(1032 512 328) (2296 512 328) (2296 504 328)"
			"material" "DEV/GRAYGRID"
			"uaxis" "[1 0 0 -256] 0.25"
			"vaxis" "[0 -1 0 256] 0.25"
			"rotation" "0"
			"lightmapscale" "16"
			"smoothing_groups" "0"
		}
		side
		{
			"id" "288"
			"plane" "(1032 504 200) (2296 504 200) (2296 512 200)"
			"material" "DEV/GRAYGRID"
			"uaxis" "[1 0 0 0] 0.25"
			"vaxis" "[0 -1 0 0] 0.25"
			"rotation" "0"
			"lightmapscale" "16"
			"smoothing_groups" "0"
		}
		side
		{
			"id" "287"
			"plane" "(1032 512 200) (2296 512 200) (2296 512 328)"
			"material" "DEV/DEV_MEASUREWALL01A"
			"uaxis" "[1 0 0 0] 0.25"
			"vaxis" "[0 0 -1 288] 0.25"
			"rotation" "0"
			"lightmapscale" "16"
			"smoothing_groups" "0"
		}
		side
		{
			"id" "286"
			"plane" "(2296 504 200) (1032 504 200) (1032 504 328)"
			"material" "DEV/DEV_MEASUREWALL01A"
			"uaxis" "[1 0 0 0] 0.25"
			"vaxis" "[0 0 -1 288] 0.25"
			"rotation" "0"
			"lightmapscale" "16"
			"smoothing_groups" "0"
		}
		side
		{
			"id" "285"
			"plane" "(1032 504 200) (1032 512 200) (1032 512 328)"
			"material" "DEV/GRAYGRID"
			"uaxis" "[0 1 0 0] 0.25"
			"vaxis" "[0 0 -1 32] 0.25"
			"rotation" "0"
			"lightmapscale" "16"
			"smoothing_groups" "0"
		}
		side
		{
			"id" "284"
			"plane" "(2296 512 200) (2296 504 200) (2296 504 328)"
			"material" "DEV/GRAYGRID"
			"uaxis" "[0 1 0 0] 0.25"
			"vaxis" "[0 0 -1 32] 0.25"
			"rotation" "0"
			"lightmapscale" "16"
			"smoothing_groups" "0"
		}
		editor
		{
			"color" "0 248 209"
			"visgroupshown" "1"
			"visgroupautoshown" "1"
		}
	}
	solid
	{
		"id" "179"
		side
		{
			"id" "295"
			"plane" "(2296 504 328) (2304 504 328) (2304 -504 328)"
			"material" "DEV/GRAYGRID"
			"uaxis" "[1 0 0 -256] 0.25"
			"vaxis" "[0 -1 0 256] 0.25"
			"rotation" "0"
			"lightmapscale" "16"
			"smoothing_groups" "0"
		}
		side
		{
			"id" "294"
			"plane" "(2296 -504 200) (2304 -504 200) (2304 504 200)"
			"material" "DEV/GRAYGRID"
			"uaxis" "[1 0 0 0] 0.25"
			"vaxis" "[0 -1 0 0] 0.25"
			"rotation" "0"
			"lightmapscale" "16"
			"smoothing_groups" "0"
		}
		side
		{
			"id" "293"
			"plane" "(2304 504 200) (2304 -504 200) (2304 -504 328)"
			"material" "DEV/DEV_MEASUREWALL01A"
			"uaxis" "[0 1 0 0] 0.25"
			"vaxis" "[0 0 -1 288] 0.25"
			"rotation" "0"
			"lightmapscale" "16"
			"smoothing_groups" "0"
		}
		side
		{
			"id" "292"
			"plane" "(2304 -504 200) (2296 -504 200) (2296 -504 328)"
			"material" "DEV/GRAYGRID"
			"uaxis" "[1 0 0 0] 0.25"
			"vaxis" "[0 0 -1 32] 0.25"
			"rotation" "0"
			"lightmapscale" "16"
			"smoothing_groups" "0"
		}
		side
		{
			"id" "291"
			"plane" "(2296 504 200) (2304 504 200) (2304 504 328)"
			"material" "DEV/GRAYGRID"
			"uaxis" "[1 0 0 0] 0.25"
			"vaxis" "[0 0 -1 32] 0.25"
			"rotation" "0"
			"lightmapscale" "16"
			"smoothing_groups" "0"
		}
		side
		{
			"id" "290"
			"plane" "(2296 -504 200) (2296 504 200) (2296 504 328)"
			"material" "DEV/DEV_MEASUREWALL01A"
			"uaxis" "[0 1 0 0] 0.25"
			"vaxis" "[0 0 -1 288] 0.25"
			"rotation" "0"
			"lightmapscale" "16"
			"smoothing_groups" "0"
		}
		editor
		{
			"color" "0 248 209"
			"visgroupshown" "1"
			"visgroupautoshown" "1"
		}
	}
	solid
	{
		"id" "184"
		side
		{
			"id" "307"
			"plane" "(1024 512 336) (2304 512 336) (2304 -512 336)"
			"material" "DEV/GRAYGRID"
			"uaxis" "[1 0 0 -256] 0.25"
			"vaxis" "[0 -1 0 256] 0.25"
			"rotation" "0"
			"lightmapscale" "16"
			"smoothing_groups" "0"
		}
		side
		{
			"id" "306"
			"plane" "(1024 -512 328) (2304 -512 328) (2304 512 328)"
			"material" "DEV/GRAYGRID"
			"uaxis" "[1 0 0 0] 0.25"
			"vaxis" "[0 -1 0 0] 0.25"
			"rotation" "0"
			"lightmapscale" "16"
			"smoothing_groups" "0"
		}
		side
		{
			"id" "305"
			"plane" "(2304 -512 328) (1024 -512 328) (1024 -512 336)"
			"material" "DEV/GRAYGRID"
			"uaxis" "[1 0 0 0] 0.25"
			"vaxis" "[0 0 -1 64] 0.25"
			"rotation" "0"
			"lightmapscale" "16"
			"smoothing_groups" "0"
		}
		side
		{
			"id" "304"
			"plane" "(1024 512 328) (2304 512 328) (2304 512 336)"
			"material" "DEV/GRAYGRID"
			"uaxis" "[1 0 0 0] 0.25"
			"vaxis" "[0 0 -1 64] 0.25"
			"rotation" "0"
			"lightmapscale" "16"
			"smoothing_groups" "0"
		}
		side
		{
			"id" "303"
			"plane" "(1024 -512 328) (1024 512 328) (1024 512 336)"
			"material" "DEV/GRAYGRID"
			"uaxis" "[0 1 0 0] 0.25"
			"vaxis" "[0 0 -1 64] 0.25"
			"rotation" "0"
			"lightmapscale" "16"
			"smoothing_groups" "0"
		}
		side
		{
			"id" "302"
			"plane" "(2304 512 328) (2304 -512 328) (2304 -512 336)"
			"material" "DEV/GRAYGRID"
			"uaxis" "[0 1 0 0] 0.25"
			"vaxis" "[0 0 -1 64] 0.25"
			"rotation" "0"
			"lightmapscale" "16"
			"smoothing_groups" "0"
		}
		editor
		{
			"color" "0 248 209"
			"visgroupshown" "1"
			"visgroupautoshown" "1"
		}
	}
	solid
	{
		"id" "203"
		side
		{
			"id" "337"
			"plane" "(-768 -512 64) (-768 -256 64) (0 -256 64)"
			"material" "DEV/DEV_MEASUREGENERIC01B"
			"uaxis" "[1 0 0 0] 0.25"
			"vaxis" "[0 -1 0 0] 0.25"
			"rotation" "0"
			"lightmapscale" "16"
			"smoothing_groups" "0"
		}
		side
		{
			"id" "336"
			"plane" "(-768 -256 32) (-768 -512 32) (0 -512 32)"
			"material" "DEV/DEV_MEASUREGENERIC01B"
			"uaxis" "[1 0 0 0] 0.25"
			"vaxis" "[0 -1 0 0] 0.25"
			"rotation" "0"
			"lightmapscale" "16"
			"smoothing_groups" "0"
		}
		side
		{
			"id" "335"
			"plane" "(-768 -512 32) (-768 -256 32) (-768 -256 64)"
			"material" "DEV/DEV_MEASUREGENERIC01B"
			"uaxis" "[0 1 0 0] 0.25"
			"vaxis" "[0 0 -1 0] 0.25"
			"rotation" "0"
			"lightmapscale" "16"
			"smoothing_groups" "0"
		}
		side
		{
			"id" "334"
			"plane" "(0 -256 32) (0 -512 32) (0 -512 64)"
			"material" "DEV/DEV_MEASUREGENERIC01B"
			"uaxis" "[0 1 0 0] 0.25"
			"vaxis" "[0 0 -1 0] 0.25"
			"rotation" "0"
			"lightmapscale" "16"
			"smoothing_groups" "0"
		}
		side
		{
			"id" "333"
			"plane" "(0 -512 32) (-768 -512 32) (-768 -512 64)"
			"material" "DEV/DEV_MEASUREGENERIC01B"
			"uaxis" "[1 0 0 0] 0.25"
			"vaxis" "[0 0 -1 0] 0.25"
			"rotation" "0"
			"lightmapscale" "16"
			"smoothing_groups" "0"
		}
		side
		{
			"id" "332"
			"plane" "(-768 -256 32) (0 -256 32) (0 -256 64)"
			"material" "DEV/DEV_MEASUREGENERIC01B"
			"uaxis" "[1 0 0 0] 0.25"
			"vaxis" "[0 0 -1 0] 0.25"
			"rotation" "0"
			"lightmapscale" "16"
			"smoothing_groups" "0"
		}
		editor
		{
			"color" "0 170 227"
			"visgroupshown" "1"
			"visgroupautoshown" "1"
		}
	}
	solid
	{
		"id" "204"
		side
		{
			"id" "343"
			"plane" "(-1024 -1024 64) (-1024 1024 64) (-768 1024 64)"
			"material" "DEV/DEV_MEASUREGENERIC01B"
			"uaxis" "[1 0 0 0] 0.25"
			"vaxis" "[0 -1 0 0] 0.25"
			"rotation" "0"
			"lightmapscale" "16"
			"smoothing_groups" "0"
		}
		side
		{
			"id" "342"
			"plane" "(-1024 1024 32) (-1024 -1024 32) (-768 -1024 32)"
			"material" "DEV/DEV_MEASUREGENERIC01B"
			"uaxis" "[1 0 0 0] 0.25"
			"vaxis" "[0 -1 0 0] 0.25"
			"rotation" "0"
			"lightmapscale" "16"
			"smoothing_groups" "0"
		}
		side
		{
			"id" "341"
			"plane" "(-1024 -1024 32) (-1024 1024 32) (-1024 1024 64)"
			"material" "DEV/DEV_MEASUREGENERIC01B"
			"uaxis" "[0 1 0 0] 0.25"
			"vaxis" "[0 0 -1 0] 0.25"
			"rotation" "0"
			"lightmapscale" "16"
			"smoothing_groups" "0"
		}
		side
		{
			"id" "340"
			"plane" "(-768 1024 32) (-768 -1024 32) (-768 -1024 64)"
			"material" "DEV/DEV_MEASUREGENERIC01B"
			"uaxis" "[0 1 0 0] 0.25"
			"vaxis" "[0 0 -1 0] 0.25"
			"rotation" "0"
			"lightmapscale" "16"
			"smoothing_groups" "0"
		}
		side
		{
			"id" "339"
			"plane" "(-768 -1024 32) (-1024 -1024 32) (-1024 -1024 64)"
			"material" "DEV/DEV_MEASUREGENERIC01B"
			"uaxis" "[1 0 0 0] 0.25"
			"vaxis" "[0 0 -1 0] 0.25"
			"rotation" "0"
			"lightmapscale" "16"
			"smoothing_groups" "0"
		}
		side
		{
			"id" "338"
			"plane" "(-1024 1024 32) (-768 1024 32) (-768 1024 64)"
			"material" "DEV/DEV_MEASUREGENERIC01B"
			"uaxis" "[1 0 0 0] 0.25"
			"vaxis" "[0 0 -1 0] 0.25"
			"rotation" "0"
			"lightmapscale" "16"
			"smoothing_groups" "0"
		}
		editor
		{
			"color" "0 170 227"
			"visgroupshown" "1"
			"visgroupautoshown" "1"
		}
	}
	solid
	{
		"id" "205"
		side
		{
			"id" "349"
			"plane" "(-768 256 64) (-768 512 64) (0 512 64)"
			"material" "DEV/DEV_MEASUREGENERIC01B"
			"uaxis" "[1 0 0 0] 0.25"
			"vaxis" "[0 -1 0 0] 0.25"
			"rotation" "0"
			"lightmapscale" "16"
			"smoothing_groups" "0"
		}
		side
		{
			"id" "348"
			"plane" "(-768 512 32) (-768 256 32) (0 256 32)"
			"material" "DEV/DEV_MEASUREGENERIC01B"
			"uaxis" "[1 0 0 0] 0.25"
			"vaxis" "[0 -1 0 0] 0.25"
			"rotation" "0"
			"lightmapscale" "16"
			"smoothing_groups" "0"
		}
		side
		{
			"id" "347"
			"plane" "(-768 256 32) (-768 512 32) (-768 512 64)"
			"material" "DEV/DEV_MEASUREGENERIC01B"
			"uaxis" "[0 1 0 0] 0.25"
			"vaxis" "[0 0 -1 0] 0.25"
			"rotation" "0"
			"lightmapscale" "16"
			"smoothing_groups" "0"
		}
		side
		{
			"id" "346"
			"plane" "(0 512 32) (0 256 32) (0 256 64)"
			"material" "DEV/DEV_MEASUREGENERIC01B"
			"uaxis" "[0 1 0 0] 0.25"
			"vaxis" "[0 0 -1 0] 0.25"
			"rotation" "0"
			"lightmapscale" "16"
			"smoothing_groups" "0"
		}
		side
		{
			"id" "345"
			"plane" "(-768 512 32) (0 512 32) (0 512 64)"
			"material" "DEV/DEV_MEASUREGENERIC01B"
			"uaxis" "[1 0 0 0] 0.25"
			"vaxis" "[0 0 -1 0] 0.25"
			"rotation" "0"
			"lightmapscale" "16"
			"smoothing_groups" "0"
		}
		side
		{
			"id" "344"
			"plane" "(0 256 32) (-768 256 32) (-768 256 64)"
			"material" "DEV/DEV_MEASUREGENERIC01B"
			"uaxis" "[1 0 0 0] 0.25"
			"vaxis" "[0 0 -1 0] 0.25"
			"rotation" "0"
			"lightmapscale" "16"
			"smoothing_groups" "0"
		}
		editor
		{
			"color" "0 170 227"
			"visgroupshown" "1"
			"visgroupautoshown" "1"
		}
	}
	solid
	{
		"id" "212"
		side
		{
			"id" "361"
			"plane" "(1032 -56 192) (2296 -56 192) (2296 -64 192)"
			"material" "DEV/GRAYGRID"
			"uaxis" "[1 0 0 -256] 0.25"
			"vaxis" "[0 -1 0 0] 0.25"
			"rotation" "0"
			"lightmapscale" "16"
			"smoothing_groups" "0"
		}
		side
		{
			"id" "360"
			"plane" "(1032 -64 64) (2296 -64 64) (2296 -56 64)"
			"material" "DEV/GRAYGRID"
			"uaxis" "[1 0 0 0] 0.25"
			"vaxis" "[0 -1 0 256] 0.25"
			"rotation" "0"
			"lightmapscale" "16"
			"smoothing_groups" "0"
		}
		side
		{
			"id" "359"
			"plane" "(2296 -64 64) (1032 -64 64) (1032 -64 192)"
			"material" "DEV/DEV_MEASUREWALL01A"
			"uaxis" "[1 0 0 0] 0.25"
			"vaxis" "[0 0 -1 256] 0.25"
			"rotation" "0"
			"lightmapscale" "16"
			"smoothing_groups" "0"
		}
		side
		{
			"id" "358"
			"plane" "(1032 -56 64) (2296 -56 64) (2296 -56 192)"
			"material" "DEV/DEV_MEASUREWALL01A"
			"uaxis" "[1 0 0 0] 0.25"
			"vaxis" "[0 0 -1 256] 0.25"
			"rotation" "0"
			"lightmapscale" "16"
			"smoothing_groups" "0"
		}
		side
		{
			"id" "357"
			"plane" "(1032 -64 64) (1032 -56 64) (1032 -56 192)"
			"material" "DEV/GRAYGRID"
			"uaxis" "[0 1 0 -256] 0.25"
			"vaxis" "[0 0 -1 0] 0.25"
			"rotation" "0"
			"lightmapscale" "16"
			"smoothing_groups" "0"
		}
		side
		{
			"id" "356"
			"plane" "(2296 -56 64) (2296 -64 64) (2296 -64 192)"
			"material" "DEV/GRAYGRID"
			"uaxis" "[0 1 0 -256] 0.25"
			"vaxis" "[0 0 -1 0] 0.25"
			"rotation" "0"
			"lightmapscale" "16"
			"smoothing_groups" "0"
		}
		editor
		{
			"color" "0 248 209"
			"visgroupshown" "1"
			"visgroupautoshown" "1"
		}
	}
	solid
	{
		"id" "214"
		side
		{
			"id" "373"
			"plane" "(1672 -504 192) (1664 -504 192) (1664 504 192)"
			"material" "DEV/GRAYGRID"
			"uaxis" "[1 0 0 -256] 0.25"
			"vaxis" "[0 -1 0 256] 0.25"
			"rotation" "0"
			"lightmapscale" "16"
			"smoothing_groups" "0"
		}
		side
		{
			"id" "372"
			"plane" "(1672 504 64) (1664 504 64) (1664 -504 64)"
			"material" "DEV/GRAYGRID"
			"uaxis" "[1 0 0 0] 0.25"
			"vaxis" "[0 -1 0 0] 0.25"
			"rotation" "0"
			"lightmapscale" "16"
			"smoothing_groups" "0"
		}
		side
		{
			"id" "371"
			"plane" "(1664 -504 64) (1664 504 64) (1664 504 192)"
			"material" "DEV/DEV_MEASUREWALL01A"
			"uaxis" "[0 1 0 0] 0.25"
			"vaxis" "[0 0 -1 256] 0.25"
			"rotation" "0"
			"lightmapscale" "16"
			"smoothing_groups" "0"
		}
		side
		{
			"id" "370"
			"plane" "(1672 -504 64) (1664 -504 64) (1664 -504 192)"
			"material" "DEV/GRAYGRID"
			"uaxis" "[1 0 0 0] 0.25"
			"vaxis" "[0 0 -1 0] 0.25"
			"rotation" "0"
			"lightmapscale" "16"
			"smoothing_groups" "0"
		}
		side
		{
			"id" "369"
			"plane" "(1664 504 64) (1672 504 64) (1672 504 192)"
			"material" "DEV/GRAYGRID"
			"uaxis" "[1 0 0 0] 0.25"
			"vaxis" "[0 0 -1 0] 0.25"
			"rotation" "0"
			"lightmapscale" "16"
			"smoothing_groups" "0"
		}
		side
		{
			"id" "368"
			"plane" "(1672 504 64) (1672 -504 64) (1672 -504 192)"
			"material" "DEV/DEV_MEASUREWALL01A"
			"uaxis" "[0 1 0 0] 0.25"
			"vaxis" "[0 0 -1 256] 0.25"
			"rotation" "0"
			"lightmapscale" "16"
			"smoothing_groups" "0"
		}
		editor
		{
			"color" "0 248 209"
			"visgroupshown" "1"
			"visgroupautoshown" "1"
		}
	}
	solid
	{
		"id" "221"
		side
		{
			"id" "385"
			"plane" "(1032 72 192) (2296 72 192) (2296 64 192)"
			"material" "DEV/GRAYGRID"
			"uaxis" "[1 0 0 -256] 0.25"
			"vaxis" "[0 -1 0 0] 0.25"
			"rotation" "0"
			"lightmapscale" "16"
			"smoothing_groups" "0"
		}
		side
		{
			"id" "384"
			"plane" "(1032 64 64) (2296 64 64) (2296 72 64)"
			"material" "DEV/GRAYGRID"
			"uaxis" "[1 0 0 0] 0.25"
			"vaxis" "[0 -1 0 256] 0.25"
			"rotation" "0"
			"lightmapscale" "16"
			"smoothing_groups" "0"
		}
		side
		{
			"id" "383"
			"plane" "(2296 64 64) (1032 64 64) (1032 64 192)"
			"material" "DEV/DEV_MEASUREWALL01A"
			"uaxis" "[1 0 0 0] 0.25"
			"vaxis" "[0 0 -1 256] 0.25"
			"rotation" "0"
			"lightmapscale" "16"
			"smoothing_groups" "0"
		}
		side
		{
			"id" "382"
			"plane" "(1032 72 64) (2296 72 64) (2296 72 192)"
			"material" "DEV/DEV_MEASUREWALL01A"
			"uaxis" "[1 0 0 0] 0.25"
			"vaxis" "[0 0 -1 256] 0.25"
			"rotation" "0"
			"lightmapscale" "16"
			"smoothing_groups" "0"
		}
		side
		{
			"id" "381"
			"plane" "(1032 64 64) (1032 72 64) (1032 72 192)"
			"material" "DEV/GRAYGRID"
			"uaxis" "[0 1 0 -256] 0.25"
			"vaxis" "[0 0 -1 0] 0.25"
			"rotation" "0"
			"lightmapscale" "16"
			"smoothing_groups" "0"
		}
		side
		{
			"id" "380"
			"plane" "(2296 72 64) (2296 64 64) (2296 64 192)"
			"material" "DEV/GRAYGRID"
			"uaxis" "[0 1 0 -256] 0.25"
			"vaxis" "[0 0 -1 0] 0.25"
			"rotation" "0"
			"lightmapscale" "16"
			"smoothing_groups" "0"
		}
		editor
		{
			"color" "0 248 209"
			"visgroupshown" "1"
			"visgroupautoshown" "1"
		}
	}
	solid
	{
		"id" "233"
		side
		{
			"id" "415"
			"plane" "(1024 72 192) (1024 504 192) (1032 504 192)"
			"material" "DEV/GRAYGRID"
			"uaxis" "[1 0 0 -256] 0.25"
			"vaxis" "[0 -1 0 256] 0.25"
			"rotation" "0"
			"lightmapscale" "16"
			"smoothing_groups" "0"
		}
		side
		{
			"id" "414"
			"plane" "(1032 504 64) (1024 504 64) (1024 72 64)"
			"material" "DEV/GRAYGRID"
			"uaxis" "[1 0 0 0] 0.25"
			"vaxis" "[0 -1 0 0] 0.25"
			"rotation" "0"
			"lightmapscale" "16"
			"smoothing_groups" "0"
		}
		side
		{
			"id" "413"
			"plane" "(1024 72 64) (1024 504 64) (1024 504 192)"
			"material" "DEV/DEV_MEASUREWALL01A"
			"uaxis" "[0 1 0 0] 0.25"
			"vaxis" "[0 0 -1 256] 0.25"
			"rotation" "0"
			"lightmapscale" "16"
			"smoothing_groups" "0"
		}
		side
		{
			"id" "412"
			"plane" "(1024 504 64) (1032 504 64) (1032 504 192)"
			"material" "DEV/GRAYGRID"
			"uaxis" "[1 0 0 0] 0.25"
			"vaxis" "[0 0 -1 0] 0.25"
			"rotation" "0"
			"lightmapscale" "16"
			"smoothing_groups" "0"
		}
		side
		{
			"id" "411"
			"plane" "(1032 504 64) (1032 72 64) (1032 72 192)"
			"material" "DEV/DEV_MEASUREWALL01A"
			"uaxis" "[0 1 0 0] 0.25"
			"vaxis" "[0 0 -1 256] 0.25"
			"rotation" "0"
			"lightmapscale" "16"
			"smoothing_groups" "0"
		}
		side
		{
			"id" "410"
			"plane" "(1032 72 64) (1024 72 64) (1024 72 192)"
			"material" "DEV/GRAYGRID"
			"uaxis" "[1 0 0 0] 0.25"
			"vaxis" "[0 0 -1 0] 0.25"
			"rotation" "0"
			"lightmapscale" "16"
			"smoothing_groups" "0"
		}
		editor
		{
			"color" "0 248 209"
			"visgroupshown" "1"
			"visgroupautoshown" "1"
		}
	}
	solid
	{
		"id" "547"
		side
		{
			"id" "1255"
			"plane" "(1024 -56 72) (1024 -56 64) (1024 64 64)"
			"material" "DEV/GRAYGRID"
			"uaxis" "[0 1 0 256] 0.25"
			"vaxis" "[0 0 -1 256] 0.25"
			"rotation" "0"
			"lightmapscale" "16"
			"smoothing_groups" "0"
		}
		side
		{
			"id" "1254"
			"plane" "(1024 64 72) (1024 64 64) (1036 64 72)"
			"material" "DEV/GRAYGRID"
			"uaxis" "[1 0 0 -256] 0.25"
			"vaxis" "[0 0 -1 256] 0.25"
			"rotation" "0"
			"lightmapscale" "16"
			"smoothing_groups" "0"
		}
		side
		{
			"id" "1253"
			"plane" "(1024 -56 64) (1024 -56 72) (1036 -56 72)"
			"material" "DEV/GRAYGRID"
			"uaxis" "[1 0 0 -256] 0.25"
			"vaxis" "[0 0 -1 256] 0.25"
			"rotation" "0"
			"lightmapscale" "16"
			"smoothing_groups" "0"
		}
		side
		{
			"id" "1252"
			"plane" "(1036 64 72) (1024 64 64) (1024 -56 64)"
			"material" "DEV/DEV_MEASURESTAIRS01A"
			"uaxis" "[1 0 0 -256] 0.25"
			"vaxis" "[0 -1 0 0] 0.25"
			"rotation" "0"
			"lightmapscale" "16"
			"smoothing_groups" "0"
		}
		side
		{
			"id" "1251"
			"plane" "(1036 -56 72) (1024 -56 72) (1024 64 72)"
			"material" "DEV/GRAYGRID"
			"uaxis" "[1 0 0 -256] 0.25"
			"vaxis" "[0 -1 0 256] 0.25"
			"rotation" "0"
			"lightmapscale" "16"
			"smoothing_groups" "0"
		}
		editor
		{
			"color" "148 173 0"
			"groupid" "661"
			"visgroupshown" "1"
			"visgroupautoshown" "1"
		}
	}
	solid
	{
		"id" "549"
		side
		{
			"id" "1260"
			"plane" "(1036 64 72) (1048 64 80) (1036 64 80)"
			"material" "DEV/DEV_MEASURESTAIRS01A"
			"uaxis" "[1 0 0 -256] 0.25"
			"vaxis" "[0 0 -1 0] 0.25"
			"rotation" "0"
			"lightmapscale" "16"
			"smoothing_groups" "0"
		}
		side
		{
			"id" "1259"
			"plane" "(1048 -56 80) (1036 -56 72) (1036 -56 80)"
			"material" "DEV/GRAYGRID"
			"uaxis" "[1 0 0 -256] 0.25"
			"vaxis" "[0 0 -1 256] 0.25"
			"rotation" "0"
			"lightmapscale" "16"
			"smoothing_groups" "0"
		}
		side
		{
			"id" "1258"
			"plane" "(1048 64 80) (1036 64 72) (1036 -56 72)"
			"material" "DEV/DEV_MEASURESTAIRS01A"
			"uaxis" "[1 0 0 -256] 0.25"
			"vaxis" "[0 -1 0 0] 0.25"
			"rotation" "0"
			"lightmapscale" "16"
			"smoothing_groups" "0"
		}
		side
		{
			"id" "1257"
			"plane" "(1036 -56 80) (1036 -56 72) (1036 64 72)"
			"material" "DEV/GRAYGRID"
			"uaxis" "[0 1 0 256] 0.25"
			"vaxis" "[0 0 -1 256] 0.25"
			"rotation" "0"
			"lightmapscale" "16"
			"smoothing_groups" "0"
		}
		side
		{
			"id" "1256"
			"plane" "(1048 -56 80) (1036 -56 80) (1036 64 80)"
			"material" "DEV/GRAYGRID"
			"uaxis" "[1 0 0 -256] 0.25"
			"vaxis" "[0 -1 0 256] 0.25"
			"rotation" "0"
			"lightmapscale" "16"
			"smoothing_groups" "0"
		}
		editor
		{
			"color" "148 173 0"
			"groupid" "661"
			"visgroupshown" "1"
			"visgroupautoshown" "1"
		}
	}
	solid
	{
		"id" "551"
		side
		{
			"id" "1265"
			"plane" "(1048 64 80) (1060 64 88) (1048 64 88)"
			"material" "DEV/DEV_MEASURESTAIRS01A"
			"uaxis" "[1 0 0 -256] 0.25"
			"vaxis" "[0 0 -1 0] 0.25"
			"rotation" "0"
			"lightmapscale" "16"
			"smoothing_groups" "0"
		}
		side
		{
			"id" "1264"
			"plane" "(1060 -56 88) (1048 -56 80) (1048 -56 88)"
			"material" "DEV/GRAYGRID"
			"uaxis" "[1 0 0 -256] 0.25"
			"vaxis" "[0 0 -1 256] 0.25"
			"rotation" "0"
			"lightmapscale" "16"
			"smoothing_groups" "0"
		}
		side
		{
			"id" "1263"
			"plane" "(1060 64 88) (1048 64 80) (1048 -56 80)"
			"material" "DEV/DEV_MEASURESTAIRS01A"
			"uaxis" "[1 0 0 -256] 0.25"
			"vaxis" "[0 -1 0 0] 0.25"
			"rotation" "0"
			"lightmapscale" "16"
			"smoothing_groups" "0"
		}
		side
		{
			"id" "1262"
			"plane" "(1048 -56 88) (1048 -56 80) (1048 64 80)"
			"material" "DEV/GRAYGRID"
			"uaxis" "[0 1 0 256] 0.25"
			"vaxis" "[0 0 -1 256] 0.25"
			"rotation" "0"
			"lightmapscale" "16"
			"smoothing_groups" "0"
		}
		side
		{
			"id" "1261"
			"plane" "(1060 -56 88) (1048 -56 88) (1048 64 88)"
			"material" "DEV/GRAYGRID"
			"uaxis" "[1 0 0 -256] 0.25"
			"vaxis" "[0 -1 0 256] 0.25"
			"rotation" "0"
			"lightmapscale" "16"
			"smoothing_groups" "0"
		}
		editor
		{
			"color" "148 173 0"
			"groupid" "661"
			"visgroupshown" "1"
			"visgroupautoshown" "1"
		}
	}
	solid
	{
		"id" "553"
		side
		{
			"id" "1270"
			"plane" "(1060 64 88) (1072 64 96) (1060 64 96)"
			"material" "DEV/DEV_MEASURESTAIRS01A"
			"uaxis" "[1 0 0 -256] 0.25"
			"vaxis" "[0 0 -1 0] 0.25"
			"rotation" "0"
			"lightmapscale" "16"
			"smoothing_groups" "0"
		}
		side
		{
			"id" "1269"
			"plane" "(1072 -56 96) (1060 -56 88) (1060 -56 96)"
			"material" "DEV/GRAYGRID"
			"uaxis" "[1 0 0 -256] 0.25"
			"vaxis" "[0 0 -1 256] 0.25"
			"rotation" "0"
			"lightmapscale" "16"
			"smoothing_groups" "0"
		}
		side
		{
			"id" "1268"
			"plane" "(1072 64 96) (1060 64 88) (1060 -56 88)"
			"material" "DEV/DEV_MEASURESTAIRS01A"
			"uaxis" "[1 0 0 -256] 0.25"
			"vaxis" "[0 -1 0 0] 0.25"
			"rotation" "0"
			"lightmapscale" "16"
			"smoothing_groups" "0"
		}
		side
		{
			"id" "1267"
			"plane" "(1060 -56 96) (1060 -56 88) (1060 64 88)"
			"material" "DEV/GRAYGRID"
			"uaxis" "[0 1 0 256] 0.25"
			"vaxis" "[0 0 -1 256] 0.25"
			"rotation" "0"
			"lightmapscale" "16"
			"smoothing_groups" "0"
		}
		side
		{
			"id" "1266"
			"plane" "(1072 -56 96) (1060 -56 96) (1060 64 96)"
			"material" "DEV/GRAYGRID"
			"uaxis" "[1 0 0 -256] 0.25"
			"vaxis" "[0 -1 0 256] 0.25"
			"rotation" "0"
			"lightmapscale" "16"
			"smoothing_groups" "0"
		}
		editor
		{
			"color" "148 173 0"
			"groupid" "661"
			"visgroupshown" "1"
			"visgroupautoshown" "1"
		}
	}
	solid
	{
		"id" "555"
		side
		{
			"id" "1275"
			"plane" "(1072 64 96) (1084 64 104) (1072 64 104)"
			"material" "DEV/DEV_MEASURESTAIRS01A"
			"uaxis" "[1 0 0 -256] 0.25"
			"vaxis" "[0 0 -1 0] 0.25"
			"rotation" "0"
			"lightmapscale" "16"
			"smoothing_groups" "0"
		}
		side
		{
			"id" "1274"
			"plane" "(1084 -56 104) (1072 -56 96) (1072 -56 104)"
			"material" "DEV/GRAYGRID"
			"uaxis" "[1 0 0 -256] 0.25"
			"vaxis" "[0 0 -1 256] 0.25"
			"rotation" "0"
			"lightmapscale" "16"
			"smoothing_groups" "0"
		}
		side
		{
			"id" "1273"
			"plane" "(1084 64 104) (1072 64 96) (1072 -56 96)"
			"material" "DEV/DEV_MEASURESTAIRS01A"
			"uaxis" "[1 0 0 -256] 0.25"
			"vaxis" "[0 -1 0 0] 0.25"
			"rotation" "0"
			"lightmapscale" "16"
			"smoothing_groups" "0"
		}
		side
		{
			"id" "1272"
			"plane" "(1072 -56 104) (1072 -56 96) (1072 64 96)"
			"material" "DEV/GRAYGRID"
			"uaxis" "[0 1 0 256] 0.25"
			"vaxis" "[0 0 -1 256] 0.25"
			"rotation" "0"
			"lightmapscale" "16"
			"smoothing_groups" "0"
		}
		side
		{
			"id" "1271"
			"plane" "(1084 -56 104) (1072 -56 104) (1072 64 104)"
			"material" "DEV/GRAYGRID"
			"uaxis" "[1 0 0 -256] 0.25"
			"vaxis" "[0 -1 0 256] 0.25"
			"rotation" "0"
			"lightmapscale" "16"
			"smoothing_groups" "0"
		}
		editor
		{
			"color" "148 173 0"
			"groupid" "661"
			"visgroupshown" "1"
			"visgroupautoshown" "1"
		}
	}
	solid
	{
		"id" "557"
		side
		{
			"id" "1280"
			"plane" "(1084 64 104) (1096 64 112) (1084 64 112)"
			"material" "DEV/DEV_MEASURESTAIRS01A"
			"uaxis" "[1 0 0 -256] 0.25"
			"vaxis" "[0 0 -1 0] 0.25"
			"rotation" "0"
			"lightmapscale" "16"
			"smoothing_groups" "0"
		}
		side
		{
			"id" "1279"
			"plane" "(1096 -56 112) (1084 -56 104) (1084 -56 112)"
			"material" "DEV/GRAYGRID"
			"uaxis" "[1 0 0 -256] 0.25"
			"vaxis" "[0 0 -1 256] 0.25"
			"rotation" "0"
			"lightmapscale" "16"
			"smoothing_groups" "0"
		}
		side
		{
			"id" "1278"
			"plane" "(1096 64 112) (1084 64 104) (1084 -56 104)"
			"material" "DEV/DEV_MEASURESTAIRS01A"
			"uaxis" "[1 0 0 -256] 0.25"
			"vaxis" "[0 -1 0 0] 0.25"
			"rotation" "0"
			"lightmapscale" "16"
			"smoothing_groups" "0"
		}
		side
		{
			"id" "1277"
			"plane" "(1084 -56 112) (1084 -56 104) (1084 64 104)"
			"material" "DEV/GRAYGRID"
			"uaxis" "[0 1 0 256] 0.25"
			"vaxis" "[0 0 -1 256] 0.25"
			"rotation" "0"
			"lightmapscale" "16"
			"smoothing_groups" "0"
		}
		side
		{
			"id" "1276"
			"plane" "(1096 -56 112) (1084 -56 112) (1084 64 112)"
			"material" "DEV/GRAYGRID"
			"uaxis" "[1 0 0 -256] 0.25"
			"vaxis" "[0 -1 0 256] 0.25"
			"rotation" "0"
			"lightmapscale" "16"
			"smoothing_groups" "0"
		}
		editor
		{
			"color" "148 173 0"
			"groupid" "661"
			"visgroupshown" "1"
			"visgroupautoshown" "1"
		}
	}
	solid
	{
		"id" "559"
		side
		{
			"id" "1285"
			"plane" "(1096 64 112) (1108 64 120) (1096 64 120)"
			"material" "DEV/DEV_MEASURESTAIRS01A"
			"uaxis" "[1 0 0 -256] 0.25"
			"vaxis" "[0 0 -1 0] 0.25"
			"rotation" "0"
			"lightmapscale" "16"
			"smoothing_groups" "0"
		}
		side
		{
			"id" "1284"
			"plane" "(1108 -56 120) (1096 -56 112) (1096 -56 120)"
			"material" "DEV/GRAYGRID"
			"uaxis" "[1 0 0 -256] 0.25"
			"vaxis" "[0 0 -1 256] 0.25"
			"rotation" "0"
			"lightmapscale" "16"
			"smoothing_groups" "0"
		}
		side
		{
			"id" "1283"
			"plane" "(1108 64 120) (1096 64 112) (1096 -56 112)"
			"material" "DEV/DEV_MEASURESTAIRS01A"
			"uaxis" "[1 0 0 -256] 0.25"
			"vaxis" "[0 -1 0 0] 0.25"
			"rotation" "0"
			"lightmapscale" "16"
			"smoothing_groups" "0"
		}
		side
		{
			"id" "1282"
			"plane" "(1096 -56 120) (1096 -56 112) (1096 64 112)"
			"material" "DEV/GRAYGRID"
			"uaxis" "[0 1 0 256] 0.25"
			"vaxis" "[0 0 -1 256] 0.25"
			"rotation" "0"
			"lightmapscale" "16"
			"smoothing_groups" "0"
		}
		side
		{
			"id" "1281"
			"plane" "(1108 -56 120) (1096 -56 120) (1096 64 120)"
			"material" "DEV/GRAYGRID"
			"uaxis" "[1 0 0 -256] 0.25"
			"vaxis" "[0 -1 0 256] 0.25"
			"rotation" "0"
			"lightmapscale" "16"
			"smoothing_groups" "0"
		}
		editor
		{
			"color" "148 173 0"
			"groupid" "661"
			"visgroupshown" "1"
			"visgroupautoshown" "1"
		}
	}
	solid
	{
		"id" "562"
		side
		{
			"id" "1290"
			"plane" "(1108 64 120) (1120 64 128) (1108 64 128)"
			"material" "DEV/DEV_MEASURESTAIRS01A"
			"uaxis" "[1 0 0 -256] 0.25"
			"vaxis" "[0 0 -1 0] 0.25"
			"rotation" "0"
			"lightmapscale" "16"
			"smoothing_groups" "0"
		}
		side
		{
			"id" "1289"
			"plane" "(1120 -56 128) (1108 -56 120) (1108 -56 128)"
			"material" "DEV/GRAYGRID"
			"uaxis" "[1 0 0 -256] 0.25"
			"vaxis" "[0 0 -1 256] 0.25"
			"rotation" "0"
			"lightmapscale" "16"
			"smoothing_groups" "0"
		}
		side
		{
			"id" "1288"
			"plane" "(1120 64 128) (1108 64 120) (1108 -56 120)"
			"material" "DEV/DEV_MEASURESTAIRS01A"
			"uaxis" "[1 0 0 -256] 0.25"
			"vaxis" "[0 -1 0 0] 0.25"
			"rotation" "0"
			"lightmapscale" "16"
			"smoothing_groups" "0"
		}
		side
		{
			"id" "1287"
			"plane" "(1108 -56 128) (1108 -56 120) (1108 64 120)"
			"material" "DEV/GRAYGRID"
			"uaxis" "[0 1 0 256] 0.25"
			"vaxis" "[0 0 -1 256] 0.25"
			"rotation" "0"
			"lightmapscale" "16"
			"smoothing_groups" "0"
		}
		side
		{
			"id" "1286"
			"plane" "(1120 -56 128) (1108 -56 128) (1108 64 128)"
			"material" "DEV/GRAYGRID"
			"uaxis" "[1 0 0 -256] 0.25"
			"vaxis" "[0 -1 0 256] 0.25"
			"rotation" "0"
			"lightmapscale" "16"
			"smoothing_groups" "0"
		}
		editor
		{
			"color" "148 173 0"
			"groupid" "661"
			"visgroupshown" "1"
			"visgroupautoshown" "1"
		}
	}
	solid
	{
		"id" "565"
		side
		{
			"id" "1295"
			"plane" "(1120 64 128) (1132 64 136) (1120 64 136)"
			"material" "DEV/DEV_MEASURESTAIRS01A"
			"uaxis" "[1 0 0 -256] 0.25"
			"vaxis" "[0 0 -1 0] 0.25"
			"rotation" "0"
			"lightmapscale" "16"
			"smoothing_groups" "0"
		}
		side
		{
			"id" "1294"
			"plane" "(1132 -56 136) (1120 -56 128) (1120 -56 136)"
			"material" "DEV/GRAYGRID"
			"uaxis" "[1 0 0 -256] 0.25"
			"vaxis" "[0 0 -1 256] 0.25"
			"rotation" "0"
			"lightmapscale" "16"
			"smoothing_groups" "0"
		}
		side
		{
			"id" "1293"
			"plane" "(1132 64 136) (1120 64 128) (1120 -56 128)"
			"material" "DEV/DEV_MEASURESTAIRS01A"
			"uaxis" "[1 0 0 -256] 0.25"
			"vaxis" "[0 -1 0 0] 0.25"
			"rotation" "0"
			"lightmapscale" "16"
			"smoothing_groups" "0"
		}
		side
		{
			"id" "1292"
			"plane" "(1120 -56 136) (1120 -56 128) (1120 64 128)"
			"material" "DEV/GRAYGRID"
			"uaxis" "[0 1 0 256] 0.25"
			"vaxis" "[0 0 -1 256] 0.25"
			"rotation" "0"
			"lightmapscale" "16"
			"smoothing_groups" "0"
		}
		side
		{
			"id" "1291"
			"plane" "(1132 -56 136) (1120 -56 136) (1120 64 136)"
			"material" "DEV/GRAYGRID"
			"uaxis" "[1 0 0 -256] 0.25"
			"vaxis" "[0 -1 0 256] 0.25"
			"rotation" "0"
			"lightmapscale" "16"
			"smoothing_groups" "0"
		}
		editor
		{
			"color" "148 173 0"
			"groupid" "661"
			"visgroupshown" "1"
			"visgroupautoshown" "1"
		}
	}
	solid
	{
		"id" "567"
		side
		{
			"id" "1300"
			"plane" "(1132 64 136) (1144 64 144) (1132 64 144)"
			"material" "DEV/DEV_MEASURESTAIRS01A"
			"uaxis" "[1 0 0 -256] 0.25"
			"vaxis" "[0 0 -1 0] 0.25"
			"rotation" "0"
			"lightmapscale" "16"
			"smoothing_groups" "0"
		}
		side
		{
			"id" "1299"
			"plane" "(1144 -56 144) (1132 -56 136) (1132 -56 144)"
			"material" "DEV/GRAYGRID"
			"uaxis" "[1 0 0 -256] 0.25"
			"vaxis" "[0 0 -1 256] 0.25"
			"rotation" "0"
			"lightmapscale" "16"
			"smoothing_groups" "0"
		}
		side
		{
			"id" "1298"
			"plane" "(1144 64 144) (1132 64 136) (1132 -56 136)"
			"material" "DEV/DEV_MEASURESTAIRS01A"
			"uaxis" "[1 0 0 -256] 0.25"
			"vaxis" "[0 -1 0 0] 0.25"
			"rotation" "0"
			"lightmapscale" "16"
			"smoothing_groups" "0"
		}
		side
		{
			"id" "1297"
			"plane" "(1132 -56 144) (1132 -56 136) (1132 64 136)"
			"material" "DEV/GRAYGRID"
			"uaxis" "[0 1 0 256] 0.25"
			"vaxis" "[0 0 -1 256] 0.25"
			"rotation" "0"
			"lightmapscale" "16"
			"smoothing_groups" "0"
		}
		side
		{
			"id" "1296"
			"plane" "(1144 -56 144) (1132 -56 144) (1132 64 144)"
			"material" "DEV/GRAYGRID"
			"uaxis" "[1 0 0 -256] 0.25"
			"vaxis" "[0 -1 0 256] 0.25"
			"rotation" "0"
			"lightmapscale" "16"
			"smoothing_groups" "0"
		}
		editor
		{
			"color" "148 173 0"
			"groupid" "661"
			"visgroupshown" "1"
			"visgroupautoshown" "1"
		}
	}
	solid
	{
		"id" "569"
		side
		{
			"id" "1305"
			"plane" "(1144 64 144) (1156 64 152) (1144 64 152)"
			"material" "DEV/DEV_MEASURESTAIRS01A"
			"uaxis" "[1 0 0 -256] 0.25"
			"vaxis" "[0 0 -1 0] 0.25"
			"rotation" "0"
			"lightmapscale" "16"
			"smoothing_groups" "0"
		}
		side
		{
			"id" "1304"
			"plane" "(1156 -56 152) (1144 -56 144) (1144 -56 152)"
			"material" "DEV/GRAYGRID"
			"uaxis" "[1 0 0 -256] 0.25"
			"vaxis" "[0 0 -1 256] 0.25"
			"rotation" "0"
			"lightmapscale" "16"
			"smoothing_groups" "0"
		}
		side
		{
			"id" "1303"
			"plane" "(1156 64 152) (1144 64 144) (1144 -56 144)"
			"material" "DEV/DEV_MEASURESTAIRS01A"
			"uaxis" "[1 0 0 -256] 0.25"
			"vaxis" "[0 -1 0 0] 0.25"
			"rotation" "0"
			"lightmapscale" "16"
			"smoothing_groups" "0"
		}
		side
		{
			"id" "1302"
			"plane" "(1144 -56 152) (1144 -56 144) (1144 64 144)"
			"material" "DEV/GRAYGRID"
			"uaxis" "[0 1 0 256] 0.25"
			"vaxis" "[0 0 -1 256] 0.25"
			"rotation" "0"
			"lightmapscale" "16"
			"smoothing_groups" "0"
		}
		side
		{
			"id" "1301"
			"plane" "(1156 -56 152) (1144 -56 152) (1144 64 152)"
			"material" "DEV/GRAYGRID"
			"uaxis" "[1 0 0 -256] 0.25"
			"vaxis" "[0 -1 0 256] 0.25"
			"rotation" "0"
			"lightmapscale" "16"
			"smoothing_groups" "0"
		}
		editor
		{
			"color" "148 173 0"
			"groupid" "661"
			"visgroupshown" "1"
			"visgroupautoshown" "1"
		}
	}
	solid
	{
		"id" "571"
		side
		{
			"id" "1310"
			"plane" "(1156 64 152) (1168 64 160) (1156 64 160)"
			"material" "DEV/DEV_MEASURESTAIRS01A"
			"uaxis" "[1 0 0 -256] 0.25"
			"vaxis" "[0 0 -1 0] 0.25"
			"rotation" "0"
			"lightmapscale" "16"
			"smoothing_groups" "0"
		}
		side
		{
			"id" "1309"
			"plane" "(1168 -56 160) (1156 -56 152) (1156 -56 160)"
			"material" "DEV/GRAYGRID"
			"uaxis" "[1 0 0 -256] 0.25"
			"vaxis" "[0 0 -1 256] 0.25"
			"rotation" "0"
			"lightmapscale" "16"
			"smoothing_groups" "0"
		}
		side
		{
			"id" "1308"
			"plane" "(1168 64 160) (1156 64 152) (1156 -56 152)"
			"material" "DEV/DEV_MEASURESTAIRS01A"
			"uaxis" "[1 0 0 -256] 0.25"
			"vaxis" "[0 -1 0 0] 0.25"
			"rotation" "0"
			"lightmapscale" "16"
			"smoothing_groups" "0"
		}
		side
		{
			"id" "1307"
			"plane" "(1156 -56 160) (1156 -56 152) (1156 64 152)"
			"material" "DEV/GRAYGRID"
			"uaxis" "[0 1 0 256] 0.25"
			"vaxis" "[0 0 -1 256] 0.25"
			"rotation" "0"
			"lightmapscale" "16"
			"smoothing_groups" "0"
		}
		side
		{
			"id" "1306"
			"plane" "(1168 -56 160) (1156 -56 160) (1156 64 160)"
			"material" "DEV/GRAYGRID"
			"uaxis" "[1 0 0 -256] 0.25"
			"vaxis" "[0 -1 0 256] 0.25"
			"rotation" "0"
			"lightmapscale" "16"
			"smoothing_groups" "0"
		}
		editor
		{
			"color" "148 173 0"
			"groupid" "661"
			"visgroupshown" "1"
			"visgroupautoshown" "1"
		}
	}
	solid
	{
		"id" "573"
		side
		{
			"id" "1315"
			"plane" "(1168 64 160) (1180 64 168) (1168 64 168)"
			"material" "DEV/DEV_MEASURESTAIRS01A"
			"uaxis" "[1 0 0 -256] 0.25"
			"vaxis" "[0 0 -1 0] 0.25"
			"rotation" "0"
			"lightmapscale" "16"
			"smoothing_groups" "0"
		}
		side
		{
			"id" "1314"
			"plane" "(1180 -56 168) (1168 -56 160) (1168 -56 168)"
			"material" "DEV/GRAYGRID"
			"uaxis" "[1 0 0 -256] 0.25"
			"vaxis" "[0 0 -1 256] 0.25"
			"rotation" "0"
			"lightmapscale" "16"
			"smoothing_groups" "0"
		}
		side
		{
			"id" "1313"
			"plane" "(1180 64 168) (1168 64 160) (1168 -56 160)"
			"material" "DEV/DEV_MEASURESTAIRS01A"
			"uaxis" "[1 0 0 -256] 0.25"
			"vaxis" "[0 -1 0 0] 0.25"
			"rotation" "0"
			"lightmapscale" "16"
			"smoothing_groups" "0"
		}
		side
		{
			"id" "1312"
			"plane" "(1168 -56 168) (1168 -56 160) (1168 64 160)"
			"material" "DEV/GRAYGRID"
			"uaxis" "[0 1 0 256] 0.25"
			"vaxis" "[0 0 -1 256] 0.25"
			"rotation" "0"
			"lightmapscale" "16"
			"smoothing_groups" "0"
		}
		side
		{
			"id" "1311"
			"plane" "(1180 -56 168) (1168 -56 168) (1168 64 168)"
			"material" "DEV/GRAYGRID"
			"uaxis" "[1 0 0 -256] 0.25"
			"vaxis" "[0 -1 0 256] 0.25"
			"rotation" "0"
			"lightmapscale" "16"
			"smoothing_groups" "0"
		}
		editor
		{
			"color" "148 173 0"
			"groupid" "661"
			"visgroupshown" "1"
			"visgroupautoshown" "1"
		}
	}
	solid
	{
		"id" "575"
		side
		{
			"id" "1320"
			"plane" "(1180 64 168) (1192 64 176) (1180 64 176)"
			"material" "DEV/DEV_MEASURESTAIRS01A"
			"uaxis" "[1 0 0 -256] 0.25"
			"vaxis" "[0 0 -1 0] 0.25"
			"rotation" "0"
			"lightmapscale" "16"
			"smoothing_groups" "0"
		}
		side
		{
			"id" "1319"
			"plane" "(1192 -56 176) (1180 -56 168) (1180 -56 176)"
			"material" "DEV/GRAYGRID"
			"uaxis" "[1 0 0 -256] 0.25"
			"vaxis" "[0 0 -1 256] 0.25"
			"rotation" "0"
			"lightmapscale" "16"
			"smoothing_groups" "0"
		}
		side
		{
			"id" "1318"
			"plane" "(1192 64 176) (1180 64 168) (1180 -56 168)"
			"material" "DEV/DEV_MEASURESTAIRS01A"
			"uaxis" "[1 0 0 -256] 0.25"
			"vaxis" "[0 -1 0 0] 0.25"
			"rotation" "0"
			"lightmapscale" "16"
			"smoothing_groups" "0"
		}
		side
		{
			"id" "1317"
			"plane" "(1180 -56 176) (1180 -56 168) (1180 64 168)"
			"material" "DEV/GRAYGRID"
			"uaxis" "[0 1 0 256] 0.25"
			"vaxis" "[0 0 -1 256] 0.25"
			"rotation" "0"
			"lightmapscale" "16"
			"smoothing_groups" "0"
		}
		side
		{
			"id" "1316"
			"plane" "(1192 -56 176) (1180 -56 176) (1180 64 176)"
			"material" "DEV/GRAYGRID"
			"uaxis" "[1 0 0 -256] 0.25"
			"vaxis" "[0 -1 0 256] 0.25"
			"rotation" "0"
			"lightmapscale" "16"
			"smoothing_groups" "0"
		}
		editor
		{
			"color" "148 173 0"
			"groupid" "661"
			"visgroupshown" "1"
			"visgroupautoshown" "1"
		}
	}
	solid
	{
		"id" "577"
		side
		{
			"id" "1325"
			"plane" "(1192 64 176) (1204 64 184) (1192 64 184)"
			"material" "DEV/GRAYGRID"
			"uaxis" "[1 0 0 -256] 0.25"
			"vaxis" "[0 0 -1 256] 0.25"
			"rotation" "0"
			"lightmapscale" "16"
			"smoothing_groups" "0"
		}
		side
		{
			"id" "1324"
			"plane" "(1204 -56 184) (1192 -56 176) (1192 -56 184)"
			"material" "DEV/GRAYGRID"
			"uaxis" "[1 0 0 -256] 0.25"
			"vaxis" "[0 0 -1 256] 0.25"
			"rotation" "0"
			"lightmapscale" "16"
			"smoothing_groups" "0"
		}
		side
		{
			"id" "1323"
			"plane" "(1204 64 184) (1192 64 176) (1192 -56 176)"
			"material" "DEV/GRAYGRID"
			"uaxis" "[1 0 0 -256] 0.25"
			"vaxis" "[0 -1 0 256] 0.25"
			"rotation" "0"
			"lightmapscale" "16"
			"smoothing_groups" "0"
		}
		side
		{
			"id" "1322"
			"plane" "(1192 -56 184) (1192 -56 176) (1192 64 176)"
			"material" "DEV/GRAYGRID"
			"uaxis" "[0 1 0 256] 0.25"
			"vaxis" "[0 0 -1 256] 0.25"
			"rotation" "0"
			"lightmapscale" "16"
			"smoothing_groups" "0"
		}
		side
		{
			"id" "1321"
			"plane" "(1204 -56 184) (1192 -56 184) (1192 64 184)"
			"material" "DEV/GRAYGRID"
			"uaxis" "[1 0 0 -256] 0.25"
			"vaxis" "[0 -1 0 256] 0.25"
			"rotation" "0"
			"lightmapscale" "16"
			"smoothing_groups" "0"
		}
		editor
		{
			"color" "148 173 0"
			"groupid" "661"
			"visgroupshown" "1"
			"visgroupautoshown" "1"
		}
	}
	solid
	{
		"id" "541"
		side
		{
			"id" "1250"
			"plane" "(1204 64 184) (1216 64 192) (1204 64 192)"
			"material" "DEV/DEV_MEASURESTAIRS01A"
			"uaxis" "[1 0 0 -256] 0.25"
			"vaxis" "[0 0 -1 0] 0.25"
			"rotation" "0"
			"lightmapscale" "16"
			"smoothing_groups" "0"
		}
		side
		{
			"id" "1249"
			"plane" "(1204 -56 192) (1216 -56 192) (1204 -56 184)"
			"material" "DEV/GRAYGRID"
			"uaxis" "[1 0 0 -256] 0.25"
			"vaxis" "[0 0 -1 256] 0.25"
			"rotation" "0"
			"lightmapscale" "16"
			"smoothing_groups" "0"
		}
		side
		{
			"id" "1248"
			"plane" "(1216 -56 192) (1204 -56 192) (1204 64 192)"
			"material" "DEV/GRAYGRID"
			"uaxis" "[1 0 0 -256] 0.25"
			"vaxis" "[0 -1 0 256] 0.25"
			"rotation" "0"
			"lightmapscale" "16"
			"smoothing_groups" "0"
		}
		side
		{
			"id" "1247"
			"plane" "(1216 64 192) (1204 64 184) (1204 -56 184)"
			"material" "DEV/DEV_MEASURESTAIRS01A"
			"uaxis" "[1 0 0 -256] 0.25"
			"vaxis" "[0 -1 0 0] 0.25"
			"rotation" "0"
			"lightmapscale" "16"
			"smoothing_groups" "0"
		}
		side
		{
			"id" "1246"
			"plane" "(1204 -56 192) (1204 -56 184) (1204 64 184)"
			"material" "DEV/GRAYGRID"
			"uaxis" "[0 1 0 256] 0.25"
			"vaxis" "[0 0 -1 256] 0.25"
			"rotation" "0"
			"lightmapscale" "16"
			"smoothing_groups" "0"
		}
		editor
		{
			"color" "148 173 0"
			"groupid" "661"
			"visgroupshown" "1"
			"visgroupautoshown" "1"
		}
	}
	solid
	{
		"id" "259"
		side
		{
			"id" "455"
			"plane" "(1216 64 64) (1024 64 64) (1024 -56 64)"
			"material" "DEV/DEV_MEASURESTAIRS01A"
			"uaxis" "[1 0 0 -256] 0.25"
			"vaxis" "[0 -1 0 0] 0.25"
			"rotation" "0"
			"lightmapscale" "16"
			"smoothing_groups" "0"
		}
		side
		{
			"id" "454"
			"plane" "(1024 64 64) (1216 64 64) (1216 64 192)"
			"material" "DEV/GRAYGRID"
			"uaxis" "[1 0 0 -256] 0.25"
			"vaxis" "[0 0 -1 256] 0.25"
			"rotation" "0"
			"lightmapscale" "16"
			"smoothing_groups" "0"
		}
		side
		{
			"id" "453"
			"plane" "(1216 -56 192) (1216 -56 64) (1024 -56 64)"
			"material" "DEV/GRAYGRID"
			"uaxis" "[1 0 0 -256] 0.25"
			"vaxis" "[0 0 -1 256] 0.25"
			"rotation" "0"
			"lightmapscale" "16"
			"smoothing_groups" "0"
		}
		side
		{
			"id" "452"
			"plane" "(1216 64 192) (1216 64 64) (1216 -56 64)"
			"material" "DEV/DEV_MEASUREWALL01A"
			"uaxis" "[0 1 0 224] 0.25"
			"vaxis" "[0 0 -1 256] 0.25"
			"rotation" "0"
			"lightmapscale" "16"
			"smoothing_groups" "0"
		}
		side
		{
			"id" "451"
			"plane" "(1216 -56 192) (1024 -56 64) (1024 64 64)"
			"material" "DEV/DEV_MEASURESTAIRS01A"
			"uaxis" "[1 0 0 -256] 0.25"
			"vaxis" "[0 -1 0 0] 0.25"
			"rotation" "0"
			"lightmapscale" "16"
			"smoothing_groups" "0"
		}
		editor
		{
			"color" "148 173 0"
			"groupid" "661"
			"visgroupshown" "1"
			"visgroupautoshown" "1"
		}
	}
	solid
	{
		"id" "1092"
		side
		{
			"id" "1326"
			"plane" "(1032 -512 104) (1464 -512 104) (1464 -552 104)"
			"material" "DEV/DEV_MEASURECOUNTER"
			"uaxis" "[1 0 0 192] 0.25"
			"vaxis" "[0 -1 0 96] 0.25"
			"rotation" "0"
			"lightmapscale" "16"
			"smoothing_groups" "0"
		}
		side
		{
			"id" "1327"
			"plane" "(1032 -552 64) (1464 -552 64) (1464 -512 64)"
			"material" "DEV/DEV_MEASURECOUNTER"
			"uaxis" "[1 0 0 192] 0.25"
			"vaxis" "[0 -1 0 96] 0.25"
			"rotation" "0"
			"lightmapscale" "16"
			"smoothing_groups" "0"
		}
		side
		{
			"id" "1328"
			"plane" "(1032 -512 104) (1032 -552 104) (1032 -552 64)"
			"material" "DEV/DEV_MEASURECOUNTER"
			"uaxis" "[0 1 0 -96] 0.25"
			"vaxis" "[0 0 -1 0] 0.25"
			"rotation" "0"
			"lightmapscale" "16"
			"smoothing_groups" "0"
		}
		side
		{
			"id" "1329"
			"plane" "(1464 -512 64) (1464 -552 64) (1464 -552 104)"
			"material" "DEV/DEV_MEASURECOUNTER"
			"uaxis" "[0 1 0 -96] 0.25"
			"vaxis" "[0 0 -1 0] 0.25"
			"rotation" "0"
			"lightmapscale" "16"
			"smoothing_groups" "0"
		}
		side
		{
			"id" "1330"
			"plane" "(1464 -512 104) (1032 -512 104) (1032 -512 64)"
			"material" "DEV/DEV_MEASURECOUNTER"
			"uaxis" "[1 0 0 192] 0.25"
			"vaxis" "[0 0 -1 0] 0.25"
			"rotation" "0"
			"lightmapscale" "16"
			"smoothing_groups" "0"
		}
		side
		{
			"id" "1331"
			"plane" "(1464 -552 64) (1032 -552 64) (1032 -552 104)"
			"material" "DEV/DEV_MEASURECOUNTER"
			"uaxis" "[1 0 0 192] 0.25"
			"vaxis" "[0 0 -1 0] 0.25"
			"rotation" "0"
			"lightmapscale" "16"
			"smoothing_groups" "0"
		}
		editor
		{
			"color" "0 138 171"
			"visgroupshown" "1"
			"visgroupautoshown" "1"
		}
	}
	solid
	{
		"id" "1114"
		side
		{
			"id" "1349"
			"plane" "(1112 -512 192) (1024 -512 192) (1024 -424 192)"
			"material" "DEV/GRAYGRID"
			"uaxis" "[1 0 0 -256] 0.25"
			"vaxis" "[0 -1 0 448] 0.25"
			"rotation" "0"
			"lightmapscale" "16"
			"smoothing_groups" "0"
		}
		side
		{
			"id" "1348"
			"plane" "(1024 -424 64) (1024 -512 64) (1112 -512 64)"
			"material" "DEV/GRAYGRID"
			"uaxis" "[1 0 0 0] 0.25"
			"vaxis" "[0 -1 0 192] 0.25"
			"rotation" "0"
			"lightmapscale" "16"
			"smoothing_groups" "0"
		}
		side
		{
			"id" "1347"
			"plane" "(1024 -512 64) (1024 -424 64) (1024 -424 192)"
			"material" "DEV/DEV_MEASUREWALL01A"
			"uaxis" "[0 1 0 0] 0.25"
			"vaxis" "[0 0 -1 256] 0.25"
			"rotation" "0"
			"lightmapscale" "16"
			"smoothing_groups" "0"
		}
		side
		{
			"id" "1346"
			"plane" "(1112 -512 64) (1024 -512 64) (1024 -512 192)"
			"material" "DEV/DEV_MEASUREWALL01A"
			"uaxis" "[1 0 0 0] 0.25"
			"vaxis" "[0 0 -1 256] 0.25"
			"rotation" "0"
			"lightmapscale" "16"
			"smoothing_groups" "0"
		}
		side
		{
			"id" "1345"
			"plane" "(1112 -424 64) (1112 -512 64) (1112 -512 192)"
			"material" "DEV/DEV_MEASUREWALL01A"
			"uaxis" "[0 1 0 -192] 0.25"
			"vaxis" "[0 0 -1 256] 0.25"
			"rotation" "0"
			"lightmapscale" "16"
			"smoothing_groups" "0"
		}
		side
		{
			"id" "1344"
			"plane" "(1024 -424 64) (1112 -424 64) (1112 -424 192)"
			"material" "DEV/GRAYGRID"
			"uaxis" "[1 0 0 0] 0.25"
			"vaxis" "[0 0 -1 0] 0.25"
			"rotation" "0"
			"lightmapscale" "16"
			"smoothing_groups" "0"
		}
		editor
		{
			"color" "0 248 209"
			"visgroupshown" "1"
			"visgroupautoshown" "1"
		}
	}
	solid
	{
		"id" "1116"
		side
		{
			"id" "1361"
			"plane" "(1024 -96 192) (1024 -64 192) (1032 -64 192)"
			"material" "DEV/GRAYGRID"
			"uaxis" "[1 0 0 -256] 0.25"
			"vaxis" "[0 -1 0 256] 0.25"
			"rotation" "0"
			"lightmapscale" "16"
			"smoothing_groups" "0"
		}
		side
		{
			"id" "1360"
			"plane" "(1024 -64 64) (1024 -96 64) (1032 -96 64)"
			"material" "DEV/GRAYGRID"
			"uaxis" "[1 0 0 0] 0.25"
			"vaxis" "[0 -1 0 0] 0.25"
			"rotation" "0"
			"lightmapscale" "16"
			"smoothing_groups" "0"
		}
		side
		{
			"id" "1359"
			"plane" "(1024 -96 64) (1024 -64 64) (1024 -64 192)"
			"material" "DEV/DEV_MEASUREWALL01A"
			"uaxis" "[0 1 0 0] 0.25"
			"vaxis" "[0 0 -1 256] 0.25"
			"rotation" "0"
			"lightmapscale" "16"
			"smoothing_groups" "0"
		}
		side
		{
			"id" "1358"
			"plane" "(1032 -64 64) (1032 -96 64) (1032 -96 192)"
			"material" "DEV/DEV_MEASUREWALL01A"
			"uaxis" "[0 1 0 0] 0.25"
			"vaxis" "[0 0 -1 256] 0.25"
			"rotation" "0"
			"lightmapscale" "16"
			"smoothing_groups" "0"
		}
		side
		{
			"id" "1357"
			"plane" "(1024 -64 64) (1032 -64 64) (1032 -64 192)"
			"material" "DEV/GRAYGRID"
			"uaxis" "[1 0 0 0] 0.25"
			"vaxis" "[0 0 -1 0] 0.25"
			"rotation" "0"
			"lightmapscale" "16"
			"smoothing_groups" "0"
		}
		side
		{
			"id" "1356"
			"plane" "(1032 -96 64) (1024 -96 64) (1024 -96 192)"
			"material" "DEV/GRAYGRID"
			"uaxis" "[1 0 0 0] 0.25"
			"vaxis" "[0 0 -1 0] 0.25"
			"rotation" "0"
			"lightmapscale" "16"
			"smoothing_groups" "0"
		}
		editor
		{
			"color" "0 248 209"
			"visgroupshown" "1"
			"visgroupautoshown" "1"
		}
	}
	solid
	{
		"id" "1130"
		side
		{
			"id" "1391"
			"plane" "(1024 -96 64) (1024 -424 64) (1032 -424 64)"
			"material" "DEV/GRAYGRID"
			"uaxis" "[1 0 0 0] 0.25"
			"vaxis" "[0 -1 0 0] 0.25"
			"rotation" "0"
			"lightmapscale" "16"
			"smoothing_groups" "0"
		}
		side
		{
			"id" "1390"
			"plane" "(1024 -424 104) (1024 -424 64) (1024 -96 64)"
			"material" "DEV/DEV_MEASUREWALL01A"
			"uaxis" "[0 1 0 0] 0.25"
			"vaxis" "[0 0 -1 256] 0.25"
			"rotation" "0"
			"lightmapscale" "16"
			"smoothing_groups" "0"
		}
		side
		{
			"id" "1389"
			"plane" "(1032 -96 104) (1032 -96 64) (1032 -424 64)"
			"material" "DEV/DEV_MEASUREWALL01A"
			"uaxis" "[0 1 0 0] 0.25"
			"vaxis" "[0 0 -1 256] 0.25"
			"rotation" "0"
			"lightmapscale" "16"
			"smoothing_groups" "0"
		}
		side
		{
			"id" "1388"
			"plane" "(1024 -96 104) (1024 -96 64) (1032 -96 64)"
			"material" "DEV/GRAYGRID"
			"uaxis" "[1 0 0 0] 0.25"
			"vaxis" "[0 0 -1 0] 0.25"
			"rotation" "0"
			"lightmapscale" "16"
			"smoothing_groups" "0"
		}
		side
		{
			"id" "1387"
			"plane" "(1032 -424 104) (1032 -424 64) (1024 -424 64)"
			"material" "DEV/GRAYGRID"
			"uaxis" "[1 0 0 0] 0.25"
			"vaxis" "[0 0 -1 0] 0.25"
			"rotation" "0"
			"lightmapscale" "16"
			"smoothing_groups" "0"
		}
		side
		{
			"id" "1386"
			"plane" "(1024 -424 104) (1024 -96 104) (1032 -96 104)"
			"material" "DEV/GRAYGRID"
			"uaxis" "[1 0 0 0] 0.25"
			"vaxis" "[0 -1 0 0] 0.25"
			"rotation" "0"
			"lightmapscale" "16"
			"smoothing_groups" "0"
		}
		editor
		{
			"color" "0 248 209"
			"visgroupshown" "1"
			"visgroupautoshown" "1"
		}
	}
	solid
	{
		"id" "1131"
		side
		{
			"id" "1397"
			"plane" "(1024 -96 104) (1024 -96 176) (1024 -424 176)"
			"material" "TOOLS/TOOLSNODRAW"
			"uaxis" "[0 1 0 0] 0.25"
			"vaxis" "[0 0 -1 0] 0.25"
			"rotation" "0"
			"lightmapscale" "16"
			"smoothing_groups" "0"
		}
		side
		{
			"id" "1396"
			"plane" "(1032 -424 104) (1032 -424 176) (1032 -96 176)"
			"material" "TOOLS/TOOLSNODRAW"
			"uaxis" "[0 1 0 0] 0.25"
			"vaxis" "[0 0 -1 0] 0.25"
			"rotation" "0"
			"lightmapscale" "16"
			"smoothing_groups" "0"
		}
		side
		{
			"id" "1395"
			"plane" "(1032 -96 104) (1032 -96 176) (1024 -96 176)"
			"material" "TOOLS/TOOLSNODRAW"
			"uaxis" "[1 0 0 0] 0.25"
			"vaxis" "[0 0 -1 0] 0.25"
			"rotation" "0"
			"lightmapscale" "16"
			"smoothing_groups" "0"
		}
		side
		{
			"id" "1394"
			"plane" "(1024 -424 104) (1024 -424 176) (1032 -424 176)"
			"material" "TOOLS/TOOLSNODRAW"
			"uaxis" "[1 0 0 0] 0.25"
			"vaxis" "[0 0 -1 0] 0.25"
			"rotation" "0"
			"lightmapscale" "16"
			"smoothing_groups" "0"
		}
		side
		{
			"id" "1393"
			"plane" "(1024 -96 104) (1024 -424 104) (1032 -424 104)"
			"material" "TOOLS/TOOLSNODRAW"
			"uaxis" "[1 0 0 0] 0.25"
			"vaxis" "[0 -1 0 0] 0.25"
			"rotation" "0"
			"lightmapscale" "16"
			"smoothing_groups" "0"
		}
		side
		{
			"id" "1392"
			"plane" "(1024 -424 176) (1024 -96 176) (1032 -96 176)"
			"material" "TOOLS/TOOLSNODRAW"
			"uaxis" "[1 0 0 0] 0.25"
			"vaxis" "[0 -1 0 0] 0.25"
			"rotation" "0"
			"lightmapscale" "16"
			"smoothing_groups" "0"
		}
		editor
		{
			"color" "0 248 209"
			"visgroupshown" "1"
			"visgroupautoshown" "1"
		}
	}
	solid
	{
		"id" "1132"
		side
		{
			"id" "1403"
			"plane" "(1024 -424 192) (1024 -96 192) (1032 -96 192)"
			"material" "DEV/GRAYGRID"
			"uaxis" "[1 0 0 -256] 0.25"
			"vaxis" "[0 -1 0 256] 0.25"
			"rotation" "0"
			"lightmapscale" "16"
			"smoothing_groups" "0"
		}
		side
		{
			"id" "1402"
			"plane" "(1024 -96 176) (1024 -96 192) (1024 -424 192)"
			"material" "DEV/DEV_MEASUREWALL01A"
			"uaxis" "[0 1 0 0] 0.25"
			"vaxis" "[0 0 -1 256] 0.25"
			"rotation" "0"
			"lightmapscale" "16"
			"smoothing_groups" "0"
		}
		side
		{
			"id" "1401"
			"plane" "(1032 -424 176) (1032 -424 192) (1032 -96 192)"
			"material" "DEV/DEV_MEASUREWALL01A"
			"uaxis" "[0 1 0 0] 0.25"
			"vaxis" "[0 0 -1 256] 0.25"
			"rotation" "0"
			"lightmapscale" "16"
			"smoothing_groups" "0"
		}
		side
		{
			"id" "1400"
			"plane" "(1032 -96 176) (1032 -96 192) (1024 -96 192)"
			"material" "DEV/GRAYGRID"
			"uaxis" "[1 0 0 0] 0.25"
			"vaxis" "[0 0 -1 0] 0.25"
			"rotation" "0"
			"lightmapscale" "16"
			"smoothing_groups" "0"
		}
		side
		{
			"id" "1399"
			"plane" "(1024 -424 176) (1024 -424 192) (1032 -424 192)"
			"material" "DEV/GRAYGRID"
			"uaxis" "[1 0 0 0] 0.25"
			"vaxis" "[0 0 -1 0] 0.25"
			"rotation" "0"
			"lightmapscale" "16"
			"smoothing_groups" "0"
		}
		side
		{
			"id" "1398"
			"plane" "(1024 -96 176) (1024 -424 176) (1032 -424 176)"
			"material" "DEV/GRAYGRID"
			"uaxis" "[1 0 0 0] 0.25"
			"vaxis" "[0 -1 0 0] 0.25"
			"rotation" "0"
			"lightmapscale" "16"
			"smoothing_groups" "0"
		}
		editor
		{
			"color" "0 248 209"
			"visgroupshown" "1"
			"visgroupautoshown" "1"
		}
	}
	solid
	{
		"id" "1235"
		side
		{
			"id" "1421"
			"plane" "(2296 -512 192) (1112 -512 192) (1112 -504 192)"
			"material" "DEV/GRAYGRID"
			"uaxis" "[1 0 0 -256] 0.25"
			"vaxis" "[0 -1 0 256] 0.25"
			"rotation" "0"
			"lightmapscale" "16"
			"smoothing_groups" "0"
		}
		side
		{
			"id" "1420"
			"plane" "(1112 -512 176) (1112 -512 192) (2296 -512 192)"
			"material" "DEV/DEV_MEASUREWALL01A"
			"uaxis" "[1 0 0 0] 0.25"
			"vaxis" "[0 0 -1 256] 0.25"
			"rotation" "0"
			"lightmapscale" "16"
			"smoothing_groups" "0"
		}
		side
		{
			"id" "1419"
			"plane" "(2296 -504 176) (2296 -504 192) (1112 -504 192)"
			"material" "DEV/DEV_MEASUREWALL01A"
			"uaxis" "[1 0 0 0] 0.25"
			"vaxis" "[0 0 -1 256] 0.25"
			"rotation" "0"
			"lightmapscale" "16"
			"smoothing_groups" "0"
		}
		side
		{
			"id" "1418"
			"plane" "(1112 -504 176) (1112 -504 192) (1112 -512 192)"
			"material" "DEV/GRAYGRID"
			"uaxis" "[0 1 0 0] 0.25"
			"vaxis" "[0 0 -1 0] 0.25"
			"rotation" "0"
			"lightmapscale" "16"
			"smoothing_groups" "0"
		}
		side
		{
			"id" "1417"
			"plane" "(2296 -512 176) (2296 -512 192) (2296 -504 192)"
			"material" "DEV/GRAYGRID"
			"uaxis" "[0 1 0 0] 0.25"
			"vaxis" "[0 0 -1 0] 0.25"
			"rotation" "0"
			"lightmapscale" "16"
			"smoothing_groups" "0"
		}
		side
		{
			"id" "1416"
			"plane" "(2296 -504 176) (1112 -504 176) (1112 -512 176)"
			"material" "DEV/GRAYGRID"
			"uaxis" "[1 0 0 0] 0.25"
			"vaxis" "[0 -1 0 0] 0.25"
			"rotation" "0"
			"lightmapscale" "16"
			"smoothing_groups" "0"
		}
		editor
		{
			"color" "0 248 209"
			"visgroupshown" "1"
			"visgroupautoshown" "1"
		}
	}
	solid
	{
		"id" "1236"
		side
		{
			"id" "1427"
			"plane" "(1112 -512 104) (1112 -512 176) (2296 -512 176)"
			"material" "DEV/DEV_MEASUREWALL01A"
			"uaxis" "[1 0 0 0] 0.25"
			"vaxis" "[0 0 -1 256] 0.25"
			"rotation" "0"
			"lightmapscale" "16"
			"smoothing_groups" "0"
		}
		side
		{
			"id" "1426"
			"plane" "(2296 -504 104) (2296 -504 176) (1112 -504 176)"
			"material" "DEV/DEV_MEASUREWALL01A"
			"uaxis" "[1 0 0 0] 0.25"
			"vaxis" "[0 0 -1 256] 0.25"
			"rotation" "0"
			"lightmapscale" "16"
			"smoothing_groups" "0"
		}
		side
		{
			"id" "1425"
			"plane" "(1112 -504 104) (1112 -504 176) (1112 -512 176)"
			"material" "DEV/GRAYGRID"
			"uaxis" "[0 1 0 0] 0.25"
			"vaxis" "[0 0 -1 0] 0.25"
			"rotation" "0"
			"lightmapscale" "16"
			"smoothing_groups" "0"
		}
		side
		{
			"id" "1424"
			"plane" "(2296 -512 104) (2296 -512 176) (2296 -504 176)"
			"material" "DEV/GRAYGRID"
			"uaxis" "[0 1 0 0] 0.25"
			"vaxis" "[0 0 -1 0] 0.25"
			"rotation" "0"
			"lightmapscale" "16"
			"smoothing_groups" "0"
		}
		side
		{
			"id" "1423"
			"plane" "(2296 -504 104) (1112 -504 104) (1112 -512 104)"
			"material" "DEV/GRAYGRID"
			"uaxis" "[1 0 0 0] 0.25"
			"vaxis" "[0 -1 0 0] 0.25"
			"rotation" "0"
			"lightmapscale" "16"
			"smoothing_groups" "0"
		}
		side
		{
			"id" "1422"
			"plane" "(2296 -512 176) (1112 -512 176) (1112 -504 176)"
			"material" "DEV/GRAYGRID"
			"uaxis" "[1 0 0 0] 0.25"
			"vaxis" "[0 -1 0 0] 0.25"
			"rotation" "0"
			"lightmapscale" "16"
			"smoothing_groups" "0"
		}
		editor
		{
			"color" "0 248 209"
			"visgroupshown" "1"
			"visgroupautoshown" "1"
		}
	}
	solid
	{
		"id" "1237"
		side
		{
			"id" "1433"
			"plane" "(2296 -504 64) (1112 -504 64) (1112 -512 64)"
			"material" "DEV/GRAYGRID"
			"uaxis" "[1 0 0 0] 0.25"
			"vaxis" "[0 -1 0 0] 0.25"
			"rotation" "0"
			"lightmapscale" "16"
			"smoothing_groups" "0"
		}
		side
		{
			"id" "1432"
			"plane" "(2296 -512 104) (2296 -512 64) (1112 -512 64)"
			"material" "DEV/DEV_MEASUREWALL01A"
			"uaxis" "[1 0 0 0] 0.25"
			"vaxis" "[0 0 -1 256] 0.25"
			"rotation" "0"
			"lightmapscale" "16"
			"smoothing_groups" "0"
		}
		side
		{
			"id" "1431"
			"plane" "(1112 -504 104) (1112 -504 64) (2296 -504 64)"
			"material" "DEV/DEV_MEASUREWALL01A"
			"uaxis" "[1 0 0 0] 0.25"
			"vaxis" "[0 0 -1 256] 0.25"
			"rotation" "0"
			"lightmapscale" "16"
			"smoothing_groups" "0"
		}
		side
		{
			"id" "1430"
			"plane" "(1112 -512 104) (1112 -512 64) (1112 -504 64)"
			"material" "DEV/GRAYGRID"
			"uaxis" "[0 1 0 0] 0.25"
			"vaxis" "[0 0 -1 0] 0.25"
			"rotation" "0"
			"lightmapscale" "16"
			"smoothing_groups" "0"
		}
		side
		{
			"id" "1429"
			"plane" "(2296 -504 104) (2296 -504 64) (2296 -512 64)"
			"material" "DEV/GRAYGRID"
			"uaxis" "[0 1 0 0] 0.25"
			"vaxis" "[0 0 -1 0] 0.25"
			"rotation" "0"
			"lightmapscale" "16"
			"smoothing_groups" "0"
		}
		side
		{
			"id" "1428"
			"plane" "(2296 -512 104) (1112 -512 104) (1112 -504 104)"
			"material" "DEV/GRAYGRID"
			"uaxis" "[1 0 0 0] 0.25"
			"vaxis" "[0 -1 0 0] 0.25"
			"rotation" "0"
			"lightmapscale" "16"
			"smoothing_groups" "0"
		}
		editor
		{
			"color" "0 248 209"
			"visgroupshown" "1"
			"visgroupautoshown" "1"
		}
	}
	group
	{
		"id" "743"
		editor
		{
			"color" "148 173 0"
			"visgroupshown" "1"
			"visgroupautoshown" "1"
		}
	}
	group
	{
		"id" "721"
		editor
		{
			"color" "148 173 0"
			"groupid" "743"
			"visgroupshown" "1"
			"visgroupautoshown" "1"
		}
	}
	group
	{
		"id" "700"
		editor
		{
			"color" "148 173 0"
			"groupid" "721"
			"visgroupshown" "1"
			"visgroupautoshown" "1"
		}
	}
	group
	{
		"id" "680"
		editor
		{
			"color" "148 173 0"
			"groupid" "700"
			"visgroupshown" "1"
			"visgroupautoshown" "1"
		}
	}
	group
	{
		"id" "661"
		editor
		{
			"color" "148 173 0"
			"groupid" "680"
			"visgroupshown" "1"
			"visgroupautoshown" "1"
		}
	}
}
entity
{
	"id" "3"
	"classname" "info_player_start"
	"angles" "0 0 0"
	"origin" "44.9727 -33.891 65"
	editor
	{
		"color" "0 255 0"
		"visgroupshown" "1"
		"visgroupautoshown" "1"
		"logicalpos" "[0 500]"
	}
}
entity
{
	"id" "1137"
	"classname" "prop_door_rotating"
	"ajarangles" "0 0 0"
	"angles" "0 45 0"
	"axis" "1080 -488 118.03, 1080 -488 118.03"
	"distance" "90"
	"hardware" "1"
	"model" "models/props_c17/door01_left.mdl"
	"modelscale" "1.0"
	"returndelay" "-1"
	"skin" "0"
	"spawnflags" "8192"
	"speed" "100"
	"origin" "1080 -488 118.026"
	editor
	{
		"color" "220 30 220"
		"visgroupshown" "1"
		"visgroupautoshown" "1"
		"logicalpos" "[1500 -15268]"
	}
}
cameras
{
	"activecamera" "-1"
}
cordon
{
	"mins" "(-1024 -1024 -1024)"
	"maxs" "(1024 1024 1024)"
	"active" "0"
}
