"LightmappedGeneric"
{
	"$basetexture" "RealWorldTextures2\Metal\floor\metal_91"
	"$bumpmap" "RealWorldTextures2\Metal\floor\metal_82_85_91_95_nrm"
	"$surfaceprop" "metal"
	"$envmap" "env_cubemap"
	"$envmaptint" "[.7 .7 .7]"
} //Realworld Textures Version 2 - Made by TopHATTwaffle - Please credit me if used! - Contact: www.tophattwaffle.com
