LightmappedGeneric
{
	"$basetexture"	"brick/offwlld"
	"$surfaceprop" "concrete_block"
	"$bumpmap" "brick/offwlld_normal"
 	"$envmap" "env_cubemap"
	"$envmapcontrast" "1"
	"$normalmapalphaenvmapmask" "1"
}
